<?xml version="1.0" standalone="no"?>
<!DOCTYPE svg PUBLIC "-//W3C//DTD SVG 1.1//EN" "http://www.w3.org/Graphics/SVG/1.1/DTD/svg11.dtd" >
<svg xmlns="http://www.w3.org/2000/svg">
<metadata></metadata>
<defs>
<font id="oswaldregular" horiz-adv-x="1024" >
<font-face units-per-em="2048" ascent="1638" descent="-410" />
<missing-glyph horiz-adv-x="537" />
<glyph horiz-adv-x="2048" />
<glyph horiz-adv-x="2048" />
<glyph unicode="&#xd;" horiz-adv-x="537" />
<glyph unicode=" "  horiz-adv-x="537" />
<glyph unicode="&#x09;" horiz-adv-x="537" />
<glyph unicode="&#xa0;" horiz-adv-x="537" />
<glyph unicode="!" horiz-adv-x="375" d="M64 0v256h256v-256h-256zM64 1792h256l-64 -1408h-128z" />
<glyph unicode="&#x22;" horiz-adv-x="704" d="M62 1792h256l-64 -384h-128zM385 1792h256l-64 -384h-128z" />
<glyph unicode="#" horiz-adv-x="1088" d="M64 0l90 640h-90v192h117l28 192h-145v192h172l82 576h256l-82 -576h192l82 576h256l-82 -576h84v-192h-111l-28 -192h139v-192h-166l-90 -640h-256l90 640h-192l-90 -640h-256zM437 832h193l27 192h-192z" />
<glyph unicode="$" horiz-adv-x="1216" d="M127 1378q0 86 29 164.5t85.5 138t140.5 94.5t194 35v110h128v-121q21 -4 41 -9q73 -20 127 -53t91 -75t61 -85q56 -103 64 -233l-256 -64q-4 90 -32 160q-12 30 -30.5 58.5t-45.5 50.5q-10 8 -20 15v-566l128 -102q61 -49 108.5 -107.5t80.5 -122.5t50 -131.5t17 -133.5 q0 -83 -27 -158.5t-82.5 -133.5t-139.5 -93q-60 -24 -135 -31v-113h-128v113q-58 5 -105 19q-73 23 -127 60.5t-91 85t-61 97.5q-56 116 -64 265l256 64q4 -108 32 -192q12 -36 30.5 -70.5t45.5 -61.5t63 -44q10 -4 21 -8v555l-256 205q-49 39 -85.5 88.5t-60.5 104.5 t-35.5 112t-11.5 113zM384 1408q0 -66 31 -135t97 -121l64 -51v499q-50 0 -87 -16q-36 -15 -59.5 -41t-34.5 -61t-11 -74zM704 198q128 29 128 186q0 48 -12 89.5t-36 80t-60 74.5l-20 20v-450z" />
<glyph unicode="%" horiz-adv-x="1999" d="M78 1032q0 111 20 190t52 133t72.5 86t81 48.5t77.5 21.5t63 5t63 -5t78 -21.5t81.5 -48.5t72.5 -86t52 -133t20 -190q0 -133 -31 -226t-82.5 -152t-117.5 -86t-136 -27t-136 27t-117 86t-82 152t-31 226zM311 1032q0 -27 2 -59t7.5 -65t15 -64t24.5 -55.5t35.5 -39 t48.5 -14.5q42 0 68.5 31t41 77t19.5 97t5 92q0 40 -4 90t-18 94.5t-40.5 74.5t-71.5 30q-44 0 -70.5 -30t-40.5 -74.5t-18 -94.5t-4 -90zM751 0l283 1518h219l-282 -1518h-220zM1188 492q0 111 20 190t52 132.5t72.5 85.5t81 48.5t77.5 21.5t63 5t63 -5t78 -21.5 t81.5 -48.5t72.5 -85.5t52 -132.5t20 -190q0 -133 -31 -226.5t-82.5 -152.5t-117.5 -86t-136 -27t-136 27t-117 86t-82 152.5t-31 226.5zM1421 492q0 -40 5 -91.5t19.5 -97t40.5 -77t68 -31.5t68.5 31t41 76.5t19.5 97t5 92.5q0 40 -4 90t-18 94t-40.5 74t-71.5 30 q-30 0 -51 -14t-36 -37t-24 -53t-14 -62t-6.5 -63.5t-1.5 -58.5z" />
<glyph unicode="&#x26;" horiz-adv-x="1344" d="M128 384q0 62 15 128t46.5 132t80 130t114.5 122q-30 61 -64 128t-62.5 133.5t-47 130.5t-18.5 120q0 83 26 156t75 128t120.5 86.5t162.5 31.5q79 0 149 -24.5t122.5 -68.5t82.5 -106.5t30 -138.5q0 -70 -30.5 -149t-77 -156.5t-103.5 -148t-109 -122.5l256 -384 q20 45 35 123.5t29 196.5h256q0 -49 -14.5 -115t-38 -133.5t-51.5 -130t-55 -103.5q10 -13 27 -29.5t38.5 -30.5t45.5 -24t48 -10v-274q-48 0 -90.5 14.5t-81.5 38.5t-75.5 55.5t-72.5 66.5q-33 -42 -76 -75t-92.5 -55t-104.5 -33.5t-111 -11.5q-92 0 -163.5 31.5 t-120.5 85.5t-74.5 127.5t-25.5 157.5zM384 384q0 -39 7 -73.5t22 -61t39.5 -42t59.5 -15.5q48 0 89 20t71 44q35 28 64 64q-68 101 -123 183q-23 35 -46 69t-41 62t-30.5 46.5t-14.5 23.5q-21 -28 -39 -66t-31 -81t-20 -87.5t-7 -85.5zM448 1408q0 -35 8.5 -82.5t22 -100 t31 -105t35.5 -96.5q16 20 34.5 52t36 71.5t33.5 83.5t28.5 87t19.5 83t7 71q0 57 -34 92.5t-94 35.5q-32 0 -56 -16t-40 -42.5t-24 -61.5t-8 -72z" />
<glyph unicode="'" horiz-adv-x="384" d="M62 1792h256l-64 -384h-128z" />
<glyph unicode="(" horiz-adv-x="640" d="M128 896q0 195 13 342t38.5 253.5t63.5 177t87.5 112t111 58.5t134.5 17v-192q-38 0 -67 -14t-50 -48t-35.5 -91t-23.5 -142t-12.5 -202t-3.5 -271t3.5 -271t12.5 -202t23.5 -142t35.5 -91t50 -48t67 -14v-192q-73 0 -134.5 17t-111 58.5t-87.5 112t-63.5 177 t-38.5 253.5t-13 342z" />
<glyph unicode=")" horiz-adv-x="640" d="M64 -64v192q38 0 67 14t50 48t35.5 91t23.5 142t12.5 202t3.5 271t-3.5 271t-12.5 202t-23.5 142t-35.5 91t-50 48t-67 14v192q73 0 134.5 -17t111 -58.5t87.5 -112t63.5 -177t38.5 -253.5t13 -342t-13 -342t-38.5 -253.5t-63.5 -177t-87.5 -112t-111 -58.5t-134.5 -17z " />
<glyph unicode="*" horiz-adv-x="896" d="M106 1335l61 161l245 -132l-28 300h192l-29 -300l246 132l61 -161l-257 -99l172 -242l-152 -90l-137 277l-137 -277l-152 90l172 243z" />
<glyph unicode="+" horiz-adv-x="704" d="M64 576v192h192v192h192v-192h192v-192h-192v-192h-192v192h-192z" />
<glyph unicode="," horiz-adv-x="512" d="M128 0v256h256q0 -144 -3 -242t-21 -158t-57 -86t-111 -26l-64 128q48 0 74 13.5t38 33.5t14 42t2 39h-128z" />
<glyph unicode="-" horiz-adv-x="384" d="M0 448v192h384v-192h-384z" />
<glyph unicode="." horiz-adv-x="384" d="M64 0v256h256v-256h-256z" />
<glyph unicode="/" horiz-adv-x="832" d="M0 0l575 1792h257l-576 -1792h-256z" />
<glyph unicode="0" horiz-adv-x="1152" d="M128 512v768q0 121 24.5 207t63.5 145t88 94t99 54t95.5 24.5t77.5 5.5t77.5 -5.5t95.5 -24.5t99 -54t88 -94t63.5 -145t24.5 -207v-768q0 -142 -37.5 -242.5t-100 -164.5t-143.5 -93.5t-167 -29.5t-167 29.5t-143.5 93.5t-100 164.5t-37.5 242.5zM384 512 q0 -28 2.5 -62.5t9.5 -70t20.5 -69.5t34.5 -60t52 -42t73 -16t73 16t52 42t34.5 60t20.5 69.5t9.5 70t2.5 62.5v768q0 29 -1.5 64t-8 70.5t-18.5 69t-33.5 59.5t-53.5 41.5t-77 15.5t-77 -15.5t-53.5 -41.5t-33.5 -59.5t-18.5 -69t-8 -70.5t-1.5 -64v-768z" />
<glyph unicode="1" horiz-adv-x="640" d="M64 1408v192q55 20 104 48q42 24 85 60t67 84h192v-1792h-256v1408h-192z" />
<glyph unicode="2" horiz-adv-x="1089" d="M96 0v256l449 640q68 97 106.5 166.5t57.5 120.5t23.5 89t4.5 72q0 48 -12 94t-36 82t-60 58t-84 22t-84 -23t-60 -65t-36 -101t-12 -131v-64h-256v64q0 120 25 218t79 167t139 107t205 38t205 -37t139 -100t79 -148t25 -181q0 -72 -11.5 -135t-35.5 -123.5t-60 -122 t-85 -131.5l-448 -576h640v-256h-897z" />
<glyph unicode="3" horiz-adv-x="1088" d="M96 448v64h256q0 -96 12 -158t36 -98t60 -50t84 -14t84 14t60 50t36 98t12 158q0 72 -13 131t-43 101t-79 65t-121 23v256q72 0 121 13t79 43t43 79t13 121t-12 121t-36 79t-60 43t-84 13t-84 -14t-60 -50t-36 -98t-12 -158h-256v64q0 96 25 181t79 148t139 100t205 37 t205 -37t139 -100t79 -148t25 -181q0 -60 -11 -108.5t-29 -86.5t-41 -67t-47 -50q-56 -49 -128 -72q72 -24 128 -80q24 -24 47 -57.5t41 -78.5t29 -102.5t11 -129.5q0 -120 -25 -218t-79 -167t-139 -107t-205 -38t-205 37t-139 100t-79 148t-25 181z" />
<glyph unicode="4" horiz-adv-x="1126" d="M96 460v285l448 1048h320v-1091h198v-242h-198v-460h-256v460h-512zM352 702h256l32 770z" />
<glyph unicode="5" horiz-adv-x="1152" d="M128 512h256v-40q0 -52 5 -103t22.5 -91.5t52 -66t93.5 -25.5q66 0 107 26t64 77t31.5 127.5t8.5 178.5q0 76 -1.5 145t-18 121t-56 82.5t-115.5 30.5q-36 0 -67 -14.5t-55.5 -36.5t-42 -48t-26.5 -49h-218v966h792v-256h-560l-16 -434q29 18 68 32q33 12 80 22t108 10 q107 0 180.5 -38.5t118.5 -108.5t65 -166.5t20 -212.5q0 -73 -6 -150t-23 -150t-48 -138.5t-81.5 -114t-122.5 -77t-172 -28.5q-136 0 -222 42t-135 114t-67.5 168.5t-18.5 205.5z" />
<glyph unicode="6" horiz-adv-x="1152" d="M128 576v576q0 144 25 265t79 208t139 136t205 49q96 0 178 -28t142 -85t94 -145t34 -208h-256q0 72 -11.5 121t-35.5 79t-60 43t-85 13q-192 0 -192 -384v-256q21 36 56 64q30 24 79 44t121 20q120 0 195 -44t117 -116t57 -164t15 -188q0 -120 -25 -228t-79 -189 t-139 -129t-205 -48q-96 0 -178 39t-142 114t-94 186t-34 255zM384 512q0 -72 12 -131t36 -101t60 -65t84 -23t84 23t60 65t36 101t12 131t-3 141t-21 123t-57 87t-111 33q-48 0 -84 -20t-60 -44q-28 -28 -48 -64v-256z" />
<glyph unicode="7" horiz-adv-x="845" d="M64 1579v213h717v-123l-326 -1669h-246l328 1579h-473z" />
<glyph unicode="8" horiz-adv-x="1088" d="M96 511q0 97 13.5 166t38.5 119t61 85.5t81 64.5q-52 39 -84.5 83.5t-51 95t-25.5 105.5t-7 114q0 108 26 194t78.5 146.5t132 93t186.5 32.5q106 0 185.5 -32.5t131.5 -93t78 -146.5t26 -194q0 -59 -6.5 -114t-25 -105.5t-51 -95t-84.5 -83.5q45 -30 80.5 -65 t60.5 -84.5t38.5 -119t13.5 -166.5q0 -120 -23 -217.5t-76 -166.5t-138.5 -107t-209.5 -38q-125 0 -210.5 38t-138.5 107t-76.5 166.5t-23.5 217.5zM352 511q0 -48 3 -103.5t21 -103.5t57.5 -80t111.5 -32t110.5 32t56.5 80t21 103.5t3 103.5q0 47 -6 101t-25.5 99.5 t-57.5 76t-102 30.5q-65 0 -103 -30.5t-58 -76t-26 -99.5t-6 -101zM383 1344q0 -48 5 -98t22 -90.5t49 -66.5t86 -26t85.5 26t48 66.5t21.5 90.5t5 98q0 46 -6.5 91.5t-24 82t-48.5 59.5t-81 23q-51 0 -82.5 -23t-49 -59.5t-24 -82t-6.5 -91.5z" />
<glyph unicode="9" horiz-adv-x="1152" d="M128 448h256q0 -72 11.5 -121t35.5 -79t60 -43t85 -13q192 0 192 384v256q-21 -36 -56 -64q-30 -24 -79 -44t-121 -20q-120 0 -195 44t-117 116t-57 164t-15 188q0 120 25 228t79 189t139 129t205 48q96 0 178 -39t142 -114t94 -186t34 -255v-576q0 -144 -25 -265 t-79 -208t-139 -136t-205 -49q-96 0 -178 28t-142 85t-94 145t-34 208zM384 1280q0 -72 3 -141t21 -123t57 -87t111 -33q48 0 84 20t60 44q28 28 48 64v256q0 72 -12 131t-36 101t-60 65t-84 23t-84 -23t-60 -65t-36 -101t-12 -131z" />
<glyph unicode=":" horiz-adv-x="439" d="M128 256v256h256v-256h-256zM128 832v256h256v-256h-256z" />
<glyph unicode=";" horiz-adv-x="384" d="M64 128q48 0 74 13.5t38 33.5t14 42t2 39h-128v256h256q0 -144 -3 -242t-21 -158t-57 -86t-111 -26zM64 832v256h256v-256h-256z" />
<glyph unicode="&#x3c;" horiz-adv-x="832" d="M64 512v256l640 448v-256l-448 -319l448 -321v-256z" />
<glyph unicode="=" horiz-adv-x="704" d="M64 255v192h576v-192h-576zM64 576v192h576v-192h-576z" />
<glyph unicode="&#x3e;" horiz-adv-x="832" d="M128 64v256l448 321l-448 319v256l640 -448v-256z" />
<glyph unicode="?" horiz-adv-x="1152" d="M128 1152v64q0 120 34 205t94 139t142 79t178 25q120 0 205.5 -34t139.5 -94t79 -142t25 -178q0 -193 -95.5 -338t-289.5 -238v-256h-256v320q120 72 195 143t117 137t57 125t15 107q0 192 -192 192q-48 0 -84 -13t-60 -43t-36 -79t-12 -121h-256zM384 0v256h256v-256 h-256z" />
<glyph unicode="@" horiz-adv-x="1782" d="M128 768q0 192 56.5 341.5t158.5 252.5t243 156.5t310 53.5q180 0 321 -53.5t238 -156.5t148 -252.5t51 -341.5q0 -112 -23 -191t-58.5 -131.5t-78.5 -83.5t-84 -46.5t-74.5 -19.5t-49.5 -4q-75 0 -127.5 20t-85.5 44q-39 28 -62 64q-16 -36 -41 -64q-21 -24 -53 -44 t-77 -20q-62 0 -110.5 19t-85 51t-62 73.5t-41 86t-22.5 89t-7 82.5q0 129 25 224t67 157.5t97 92.5t115 30q27 0 47 -6t35 -15.5t25 -21.5t17 -25q16 -30 18 -68v127h256v-568q0 -19 1 -40t7 -38t20 -28.5t40 -11.5q23 0 44 14.5t37 46.5t25.5 82.5t9.5 122.5 q0 170 -33.5 287t-98 189t-157.5 104t-213 32q-49 0 -105.5 -10t-113.5 -35t-110 -69t-93.5 -112t-65 -163t-24.5 -223q0 -160 24.5 -274.5t67 -192.5t99.5 -125t120.5 -72t131 -32.5t131.5 -7.5q45 0 96.5 8t96.5 19q52 12 103 28l94 -196q-68 -15 -137 -26 q-59 -10 -127 -17.5t-126 -7.5q-207 0 -362.5 50t-259.5 158t-156 278t-52 410zM768 693q0 -53 9 -89t25 -59t37 -33t45 -10q28 0 43 6t22 14q8 9 9 20v403q-1 14 -7 25q-5 10 -16 18t-31 8q-48 0 -75.5 -25t-41 -67t-16.5 -97t-3 -114z" />
<glyph unicode="A" horiz-adv-x="1152" d="M64 0l384 1792h256l384 -1792h-256l-96 448h-320l-96 -448h-256zM448 640h256l-128 768z" />
<glyph unicode="B" horiz-adv-x="1184" d="M128 0v1792h384q112 0 196 -20t144.5 -53.5t100.5 -78.5t63 -94.5t32.5 -101.5t9.5 -100q0 -72 -12.5 -132t-45.5 -108t-89 -84t-143 -60q72 -24 131 -58t101 -85.5t65 -125.5t23 -179q0 -113 -35 -207t-101 -161.5t-161 -105.5t-215 -38h-448zM384 192h128q72 0 131 14 t101 50t65 98t23 158t-23 158t-65 98t-101 50t-131 14h-128v-640zM384 1024h128q32 0 68 4t71.5 15.5t68.5 33t57.5 57t39.5 87t15 123.5q0 96 -34 148t-94 76t-142 28t-178 4v-576z" />
<glyph unicode="C" horiz-adv-x="1216" d="M96 641v511q0 144 26 265t86 208t158 136t242 49q136 0 233.5 -43.5t159 -121.5t90.5 -187.5t29 -241.5h-256q0 96 -13 168t-43 120t-79 72t-121 24t-121 -24t-79 -72t-43 -120t-13 -168v-640q0 -72 13 -141t43 -123t79 -87t121 -33t121 33t79 87t43 123t13 141v64h256 v-64q0 -120 -26 -228t-86 -189t-158 -129t-242 -48t-242 49t-158 136.5t-86 208.5t-26 265z" />
<glyph unicode="D" horiz-adv-x="1120" d="M128 0v1792h384q144 0 242 -26t158 -86t86 -158t26 -242v-704q0 -144 -26 -252t-86 -180t-158.5 -108t-243.5 -36h-382zM384 192h128q96 0 148 25t76 79t28 139t4 205v576q0 96 -4 168t-28.5 120t-77.5 72t-151 24h-123v-1408z" />
<glyph unicode="E" horiz-adv-x="896" d="M128 0v1792h704v-192h-448v-576h320v-192h-320v-640h448v-192h-704z" />
<glyph unicode="F" horiz-adv-x="896" d="M128 0v1792h704v-192h-448v-576h320v-192h-320v-832h-256z" />
<glyph unicode="G" horiz-adv-x="1216" d="M96 698v454q0 144 26 265t86 208t158 136t242 49q127 0 222.5 -39.5t160 -115t97 -186.5t32.5 -253h-256q0 96 -13 168t-43 120t-79 72t-121 24t-121 -24t-79 -72t-43 -120t-13 -168v-576q0 -144 22 -232t58 -136t82 -64t94 -16t94 16t82 64t58 136t22 232v64h-256v192 h512v-896h-192l-64 192q-21 -59 -56 -105q-15 -20 -34.5 -39t-44.5 -33.5t-55 -23.5t-66 -9q-80 0 -149 13.5t-126 45.5t-101 85t-74.5 133t-46 188t-15.5 251z" />
<glyph unicode="H" horiz-adv-x="1216" d="M128 0v1792h256v-768h448v768h256v-1792h-256v832h-448v-832h-256z" />
<glyph unicode="I" horiz-adv-x="512" d="M128 0v1792h256v-1792h-256z" />
<glyph unicode="J" horiz-adv-x="640" d="M0 0v192q72 0 121 4t79 28t43 76t13 148v1344h256v-1344q0 -120 -15 -205t-57 -139t-117 -79t-195 -25h-128z" />
<glyph unicode="K" horiz-adv-x="1216" d="M128 0v1792h256v-768l384 768h320l-385 -704l449 -1088h-320l-320 832l-128 -256v-576h-256z" />
<glyph unicode="L" horiz-adv-x="896" d="M128 0v1792h256v-1600h448v-192h-704z" />
<glyph unicode="M" horiz-adv-x="1472" d="M128 0v1792h354l254 -1372l254 1372h354v-1792h-256v1414l-256 -1414h-192l-256 1414v-1414h-256z" />
<glyph unicode="N" horiz-adv-x="1152" d="M128 0v1792h192l448 -1108v1108h256v-1792h-182l-458 1192v-1192h-256z" />
<glyph unicode="O" horiz-adv-x="1216" d="M96 576v640q0 80 10 155t33.5 141t62.5 121t95.5 94t133.5 61t177 22q147 0 245.5 -48t157.5 -129t84 -189t25 -228v-640q0 -120 -25 -228t-84 -189t-157.5 -129t-245.5 -48q-100 0 -177 22t-133.5 61t-95.5 94t-62.5 121t-33.5 141t-10 155zM352 512q0 -72 13 -131 t43 -101t79 -65t121 -23t121 23t79 65t43 101t13 131v768q0 72 -13 131t-43 101t-79 65t-121 23t-121 -23t-79 -65t-43 -101t-13 -131v-768z" />
<glyph unicode="P" horiz-adv-x="1088" d="M128 0v1792h448q120 0 205 -35t139 -101t79 -161t25 -215t-34 -205t-94 -139t-142 -79t-178 -25h-192v-832h-256zM384 1024h64q96 0 158 13t98 43t50 79t14 121t-5 131t-35 101t-95 65t-185 23h-64v-576z" />
<glyph unicode="Q" horiz-adv-x="1216" d="M96 576v640q0 80 10 155t33.5 141t62.5 121t95.5 94t133.5 61t177 22q147 0 245.5 -48t157.5 -129t84 -189t25 -228v-640q0 -120 -25 -228t-84 -189q-40 -55 -99 -95q24 -24 60 -44t84 -20v-192q-48 0 -90.5 14t-81.5 39t-76 61q-34 33 -67 72q-61 -12 -133 -12 q-100 0 -177 22t-133.5 61t-95.5 94t-62.5 121t-33.5 141t-10 155zM352 512q0 -72 13 -131t43 -101t79 -65t121 -23t121 23t79 65t43 101t13 131v768q0 72 -13 131t-43 101t-79 65t-121 23t-121 -23t-79 -65t-43 -101t-13 -131v-768z" />
<glyph unicode="R" horiz-adv-x="1152" d="M128 0v1792h320q168 0 279 -34.5t177 -97.5t93 -151.5t27 -196.5q0 -66 -9.5 -119t-25.5 -94.5t-36 -73t-41 -53.5q-49 -53 -112 -76l288 -896h-254l-258 832h-192v-832h-256zM384 1024h64q72 0 131 13.5t101 46.5t65 88.5t23 139.5t-23 139.5t-65 88.5t-101 46.5 t-131 13.5h-64v-576z" />
<glyph unicode="S" horiz-adv-x="1153" d="M96 1378q0 86 29 164.5t85.5 138t140.5 94.5t194 35q96 0 169 -20t127 -53t91 -75t61 -85q56 -103 64 -233l-256 -64q-4 90 -32 160q-12 30 -30.5 58.5t-45.5 51t-63.5 36.5t-84.5 14q-50 0 -86.5 -15.5t-60 -41.5t-34.5 -61t-11 -74q0 -66 31 -135t97 -121l320 -256 q61 -49 108.5 -107.5t80.5 -122.5t50 -131.5t17 -133.5q0 -83 -27 -158.5t-82.5 -133.5t-139.5 -92.5t-199 -34.5q-96 0 -169 22.5t-127 60t-91 85t-61 97.5q-56 116 -64 265l256 64q4 -108 32 -192q12 -36 30.5 -70.5t45.5 -61.5t63.5 -43.5t84.5 -16.5q192 0 192 192 q0 48 -12 89.5t-36 80t-60 75t-84 75.5l-320 256q-49 39 -85.5 88.5t-60.5 104.5t-35.5 112t-11.5 113z" />
<glyph unicode="T" d="M64 1564v228h896v-228h-320v-1564h-256v1564h-320z" />
<glyph unicode="U" horiz-adv-x="1280" d="M128 640v1152h256v-1152q0 -48 1 -100t8.5 -101.5t22.5 -94.5t43.5 -78.5t72.5 -53.5t108 -20t108 20t72.5 53.5t43.5 78.5t22.5 94.5t8.5 101.5t1 100v1152h256v-1152q0 -80 -7 -160t-26.5 -153t-54.5 -136.5t-92 -110t-138.5 -73t-193.5 -26.5t-193.5 26.5t-138.5 73 t-92 110t-54.5 136.5t-26.5 153t-7 160z" />
<glyph unicode="V" horiz-adv-x="1152" d="M64 1792h256l189 -960l66 -448l68 448l189 960h256l-384 -1792h-256z" />
<glyph unicode="W" horiz-adv-x="1664" d="M64 1792h256l128 -832l65 -512l63 512l128 832h256l128 -832l63 -512l65 512l128 832h256l-320 -1792h-256l-128 832l-64 512l-64 -512l-128 -832h-256z" />
<glyph unicode="X" horiz-adv-x="1152" d="M64 1792h256l256 -704l256 704h256l-320 -859l316 -933h-254l-254 768l-254 -768h-256l318 929z" />
<glyph unicode="Y" horiz-adv-x="1152" d="M64 1792h256l256 -896l256 896h256l-384 -1216v-576h-256v576z" />
<glyph unicode="Z" horiz-adv-x="960" d="M64 0v192l576 1408h-512v192h768v-192l-576 -1408h576v-192h-832z" />
<glyph unicode="[" horiz-adv-x="768" d="M128 -64v1920h512v-128h-256v-1664h256v-128h-512z" />
<glyph unicode="\" horiz-adv-x="576" d="M64 1792h256l192 -1792h-256z" />
<glyph unicode="]" horiz-adv-x="768" d="M128 -64v128h256v1664h-256v128h512v-1920h-512z" />
<glyph unicode="^" horiz-adv-x="896" d="M64 896l256 640h256l256 -640h-256l-129 448l-127 -448h-256z" />
<glyph unicode="_" horiz-adv-x="768" d="M0 0v192h768v-192h-768z" />
<glyph unicode="`" horiz-adv-x="640" d="M128 1792h256l128 -384h-128z" />
<glyph unicode="a" horiz-adv-x="993" d="M96 283q0 49 5 94t23 87.5t51.5 83.5t90.5 82.5t140.5 84.5t201.5 89v92q0 72 -11 111t-29 57t-41 21t-47 3t-47 -3t-41 -21t-29 -57t-11 -111h-256q1 91 28.5 165.5t77.5 127t120.5 81t157.5 28.5q103 0 175.5 -36t119 -93t68 -129t21.5 -144v-576q0 -72 5 -131t11 -101 q4 -25 8 -46.5t9 -41.5h-255l-34 192q-24 -48 -49 -87t-55 -66t-67 -42t-85 -15t-94 25t-82 67t-58 96t-22 113zM352 351q0 -48 11 -78.5t29 -48.5t41 -25t47 -7t47 14.5t41 32.5q11 10 20.5 21.5t19.5 25.5v354q-65 -43 -113 -77t-79.5 -67t-47.5 -67.5t-16 -77.5z" />
<glyph unicode="b" horiz-adv-x="1056" d="M128 0v1664h256v-511q49 52 89 81.5t71.5 43.5t56 17t43.5 3q90 0 150.5 -38.5t97 -124.5t52.5 -223t16 -335q0 -58 -6.5 -124.5t-21 -132.5t-39 -127.5t-60 -108t-83.5 -74.5t-110 -28q-37 0 -72 11t-67.5 29.5t-62 43t-54.5 50.5v-116h-256zM384 232q57 -23 109 -31.5 t83 -8.5q39 0 64 26.5t39 87t19.5 158.5t5.5 241q0 84 -2 154.5t-14 121t-38 79t-74 28.5t-100 -13.5t-92 -37.5v-805z" />
<glyph unicode="c" horiz-adv-x="960" d="M96 640q0 64 2 137.5t12.5 146.5t33.5 141t65.5 119.5t108.5 82.5t162 31q98 0 164.5 -25.5t109 -66.5t65.5 -93t33 -103.5t11 -98.5t1 -79h-256q0 16 -0.5 41t-3.5 53.5t-10.5 57.5t-22 52t-36.5 37.5t-55 14.5q-48 0 -74 -34t-38 -94t-14 -142t-2 -178t2 -178t14 -142 t38 -94t74 -34t74 22t38 58t14 82t2 94h256q0 -32 -2 -79t-13.5 -98.5t-35 -103.5t-66 -93t-108 -66.5t-159.5 -25.5q-96 0 -162 31t-108.5 82.5t-65.5 119.5t-33.5 141t-12.5 146.5t-2 137.5z" />
<glyph unicode="d" horiz-adv-x="1056" d="M96 577q0 198 16 335t52.5 223t97 124.5t150.5 38.5q19 0 43.5 -3t56 -17t71 -43t89.5 -82v511h256v-1664h-256v116q-25 -26 -54.5 -50.5t-62 -43t-68 -29.5t-71.5 -11q-62 0 -110 28t-83.5 74.5t-60 108t-39 127.5t-21 132.5t-6.5 124.5zM352 705q0 -143 5.5 -241 t19.5 -158.5t39 -87t64 -26.5q31 0 83 8.5t109 31.5v805q-40 24 -92 37.5t-100 13.5t-74 -28.5t-38 -79t-14 -121t-2 -154.5z" />
<glyph unicode="e" horiz-adv-x="960" d="M96 670q0 181 24 301.5t72 193t120 103t168 30.5t168 -30.5t120 -103t72 -193t24 -301.5v-30h-512v-64q0 -72 2 -141t14 -123t38 -87t74 -33q49 0 75 22t38 58t14 82t2 94h255q0 -240 -96 -353t-289 -113q-96 0 -167.5 31.5t-119.5 109.5t-72 211t-24 336zM352 768h256 q0 48 -1.5 104t-13.5 104t-38 80t-75 32q-48 0 -74 -32t-38 -80t-14 -104t-2 -104z" />
<glyph unicode="f" horiz-adv-x="704" d="M64 1088v192h128v49q0 43 0.5 89.5t8 90.5t24 84t49 70t83 47.5t125.5 17.5q36 0 70 -2.5t88 -9.5v-190q-18 2 -35 5q-14 2 -28.5 3.5t-22.5 1.5q-36 0 -57.5 -13t-32 -35t-13.5 -51t-3 -61v-96h192v-192h-192v-1088h-256v1088h-128z" />
<glyph unicode="g" horiz-adv-x="1088" d="M64 -195q0 24 6.5 58.5t30.5 84.5t65.5 83.5t89.5 57.5q-60 17 -94 47t-34 58.5t13.5 64t33 70.5t42 66t39.5 53q-34 40 -58.5 86t-40 95t-22.5 100.5t-7 102.5q0 120 33 208t87 145t123 85t141 28q48 0 87 -8t72 -25.5t61.5 -46.5t55.5 -71q13 24 33.5 50.5t49.5 49 t67 37t86 14.5v-210q-38 0 -67 -10t-50 -22q-13 -7 -23.5 -15t-19.5 -17q8 -23 16 -56q6 -26 11 -61t5 -75q0 -96 -24 -180.5t-72 -147.5t-120 -99.5t-168 -36.5q-17 0 -39 2q-26 2 -42 5l-48 8q-6 -12 -11.5 -19.5t-11.5 -20.5t-9 -21t-3 -21q0 -30 29 -46.5t80.5 -24.5 t109 -10.5t120.5 -12t123.5 -26.5t108 -47t76.5 -78t29 -120q0 -75 -24.5 -124.5t-63.5 -85t-88 -57t-99 -33t-95.5 -15.5t-77.5 -4q-35 0 -87 1t-108.5 6t-113 17t-102 33t-73.5 54t-28 77zM290 -135q0 -24 22.5 -37t74 -16.5t97 -4.5t92.5 -1q24 0 62 1.5t74 10t62 31 t26 52.5q0 15 -4 33q-14 76 -201 98l-211 25q-52 -41 -84 -134q-10 -30 -10 -58zM352 832q0 -48 7 -96.5t25 -87.5t49 -63.5t79 -24.5t79 24.5t49 63.5t25 87.5t7 96.5t-7 99t-25 93t-49 69t-79 27t-79 -27t-49 -69t-25 -93t-7 -99z" />
<glyph unicode="h" d="M128 0v1792h256v-650q64 58 115 90t90.5 46.5t69.5 17t53 2.5q42 0 76 -17.5t58 -46.5t37 -66.5t13 -76.5v-1091h-256v960q0 24 -1.5 47t-9.5 41t-26 29t-51 11q-49 0 -90.5 -22.5t-77.5 -52.5v-1013h-256z" />
<glyph unicode="i" horiz-adv-x="512" d="M128 0v1280h256v-1280h-256zM128 1472v256h256v-256h-256z" />
<glyph unicode="j" horiz-adv-x="576" d="M0 -121q14 -3 33 -5t31 -2q48 0 74 18.5t38 43t14 49.5t2 38v1259h256v-1287q0 -77 -24 -135.5t-67 -98t-101.5 -59.5t-127.5 -20q-13 0 -29.5 1t-34 3t-34 5t-30.5 8v182zM192 1472v256h256v-256h-256z" />
<glyph unicode="k" horiz-adv-x="960" d="M128 0v1792h256v-985l320 473h256l-287 -447l287 -833h-256l-192 619l-128 -171v-448h-256z" />
<glyph unicode="l" horiz-adv-x="512" d="M128 0v1792h256v-1792h-256z" />
<glyph unicode="m" horiz-adv-x="1536" d="M128 0v1280h256v-145q37 45 87 81q42 31 100.5 56.5t131.5 25.5q37 0 68.5 -6t56 -24.5t42 -51.5t26.5 -87q48 63 95 97.5t89 50t77 18.5t59 3q72 0 111 -26.5t57 -74.5t21 -116t3 -150v-931h-256v934q0 34 -1 62t-7 48.5t-19 32t-37 11.5q-36 0 -70.5 -13.5t-61.5 -29.5 q-16 -10 -31 -20.5t-29 -22.5v-1002h-256v929q0 36 -1 65t-7 50t-19 32.5t-37 11.5q-37 0 -71 -13t-61 -28q-16 -9 -31 -19t-29 -21v-1007h-256z" />
<glyph unicode="n" horiz-adv-x="992" d="M128 0v1280h256v-138q64 58 115 90t90.5 46.5t69.5 17t53 2.5q42 0 76 -17.5t58 -46.5t37 -66.5t13 -76.5v-1091h-256v960q0 24 -1.5 47t-10.5 41t-28.5 29t-55.5 11q-49 0 -86.5 -22.5t-73.5 -52.5v-1013h-256z" />
<glyph unicode="o" horiz-adv-x="960" d="M96 448v384q0 32 2 79t12.5 98.5t33.5 103.5t65.5 93t108.5 66.5t162 25.5t162 -25.5t108.5 -66.5t65.5 -93t33.5 -103.5t12.5 -98.5t2 -79v-384q0 -32 -2 -79t-12.5 -98.5t-33.5 -103.5t-65.5 -93t-108.5 -66.5t-162 -25.5t-162 25.5t-108.5 66.5t-65.5 93t-33.5 103.5 t-12.5 98.5t-2 79zM352 448q0 -48 2 -94t14 -82t38 -58t74 -22t74 22t38 58t14 82t2 94v384q0 48 -2 94t-14 82t-38 58t-74 22t-74 -22t-38 -58t-14 -82t-2 -94v-384z" />
<glyph unicode="p" horiz-adv-x="1056" d="M128 -384v1664h256v-128q50 53 89.5 82.5t71 43.5t56 17t43.5 3q90 0 150.5 -38.5t97 -124.5t52.5 -223.5t16 -335.5q0 -58 -6.5 -124.5t-21 -132.5t-39 -127t-60 -107.5t-83.5 -74.5t-110 -28q-36 0 -71.5 11t-68 29.5t-62 42.5t-54.5 50v-499h-256zM384 244 q57 -33 109 -42.5t83 -9.5q39 0 64 26.5t39 86.5t19.5 158t5.5 241q0 84 -5.5 156.5t-22 126t-46 84t-77.5 30.5t-88.5 -20.5t-80.5 -44.5v-792z" />
<glyph unicode="q" horiz-adv-x="1056" d="M96 576q0 198 16 335.5t52.5 223.5t97 124.5t150.5 38.5q19 0 43.5 -3t56 -17t71 -43.5t89.5 -82.5v128h256v-1664h-256v499q-25 -26 -54.5 -50t-62 -42.5t-68 -29.5t-71.5 -11q-62 0 -110 28t-83.5 74.5t-60 107.5t-39 127t-21 132.5t-6.5 124.5zM352 704 q0 -143 5.5 -241t19.5 -158t39 -86.5t64 -26.5q31 0 83 9.5t109 42.5v792q-40 24 -80.5 44.5t-88.5 20.5t-77.5 -30.5t-46 -84t-22 -126t-5.5 -156.5z" />
<glyph unicode="r" horiz-adv-x="704" d="M128 0v1280h256v-171h14q19 37 47 71t62 60t73.5 42t82.5 16q3 0 9.5 -0.5t13.5 -1.5l18 -2v-283q-32 13 -70 20.5t-72 7.5q-38 0 -70.5 -12.5t-56.5 -35.5t-37.5 -55.5t-13.5 -71.5v-864h-256z" />
<glyph unicode="s" horiz-adv-x="960" d="M96 320l192 64q20 -54 48 -96q12 -18 27 -35.5t33 -31t39 -21.5t45 -8t47 6.5t41 21.5t29 39.5t11 60.5t-10 63.5t-22 46.5q-14 22 -32 38l-256 192q-62 43 -100 83.5t-58.5 78t-27 72t-6.5 66.5q0 72 24 134t72 107t120 71t168 26q60 0 108.5 -14.5t86.5 -38.5t67 -54.5 t50 -61.5q49 -75 72 -169l-192 -64q-20 54 -48 96q-12 18 -27 35t-33 30.5t-39 22t-45 8.5t-47 -6.5t-41 -21.5t-29 -39.5t-11 -60.5q0 -24 10 -44t22 -34q14 -17 32 -30l256 -192q91 -73 141.5 -155.5t50.5 -184.5q0 -72 -24 -134t-72 -107t-120 -71t-168 -26 q-60 0 -108.5 14.5t-87 38t-67 54t-49.5 62.5q-49 74 -72 169z" />
<glyph unicode="t" horiz-adv-x="704" d="M64 1088v192h128v448h256v-448h192v-192h-192v-747q0 -32 3 -59.5t13.5 -47.5t32 -31t57.5 -11q8 0 22.5 1.5t28.5 3.5q17 2 35 5v-208q-54 -7 -88 -9.5t-70 -2.5q-75 0 -125.5 17.5t-83 47.5t-49 70t-24 84t-8 90.5t-0.5 89.5v707h-128z" />
<glyph unicode="u" d="M128 189v1091h256v-1013q0 -42 25.5 -66t62.5 -24q24 0 46.5 8.5t43.5 21.5t40.5 29t37.5 31v1013h256v-1280h-256v138q-65 -59 -115.5 -90.5t-90 -46t-69.5 -17t-53 -2.5q-42 0 -76 17.5t-58 46.5t-37 66.5t-13 76.5z" />
<glyph unicode="v" horiz-adv-x="928" d="M64 1280h256l160 -960l160 960h256l-286 -1280h-258z" />
<glyph unicode="w" horiz-adv-x="1406" d="M64 1280h256l128 -832l128 832h254l128 -832l128 832h256l-256 -1280h-256l-126 832l-128 -832h-256z" />
<glyph unicode="x" horiz-adv-x="960" d="M64 0l256 640v64l-256 576h256l128 -384l32 -128l32 128l128 384h256l-256 -576v-64l256 -640h-256l-128 384l-32 128l-32 -128l-128 -384h-256z" />
<glyph unicode="y" horiz-adv-x="960" d="M64 1280h256l128 -704l33 -192l31 192l128 704h256l-320 -1344q-17 -74 -53 -123.5t-92 -79t-131.5 -41.5t-171.5 -12v192q59 0 100.5 14t67.5 38.5t37.5 58t11.5 73.5q0 17 -1.5 35t-6.5 37z" />
<glyph unicode="z" horiz-adv-x="830" d="M64 0v192l448 896h-384v192h640v-192l-448 -896h448v-192h-704z" />
<glyph unicode="{" horiz-adv-x="704" d="M64 768v256q39 0 63.5 17t39 60.5t20 118t5.5 188.5q0 103 13 176t38.5 123t63.5 79.5t87.5 45t111 20t134.5 4.5v-192q-57 0 -94 -5t-58.5 -30t-30.5 -76.5t-9 -144.5q0 -84 -8.5 -150.5t-22 -118.5t-30.5 -90t-35 -65q-42 -63 -96 -88q54 -23 96 -72q18 -21 35 -50 t30.5 -67t22 -86.5t8.5 -108.5q0 -114 9 -188.5t30.5 -118t58.5 -60.5t94 -17v-192q-109 0 -192.5 24t-140.5 88.5t-86 176t-29 287.5q0 93 -5.5 144.5t-20 76.5t-39 30t-63.5 5z" />
<glyph unicode="|" horiz-adv-x="384" d="M128 -128v2048h192v-2048h-192z" />
<glyph unicode="}" horiz-adv-x="704" d="M64 -64v192q57 0 94 17t58.5 60.5t30.5 118t9 188.5q0 60 8 108.5t21.5 86.5t31 67t35.5 50q42 49 96 72q-54 25 -96 88q-18 27 -35.5 65t-31 90t-21.5 118.5t-8 150.5q0 93 -9 144.5t-30.5 76.5t-58.5 30t-94 5v192q73 0 134.5 -4.5t111 -20t87.5 -45t63.5 -79.5 t38.5 -123t13 -176q0 -114 5.5 -188.5t20 -118t39 -60.5t63.5 -17v-256q-39 0 -63.5 -5t-39 -30t-20 -76.5t-5.5 -144.5q0 -176 -29 -287.5t-86 -176t-140.5 -88.5t-192.5 -24z" />
<glyph unicode="~" horiz-adv-x="960" d="M128 832q-1 6 0 28.5t7 52.5t19 64t37.5 62.5t62.5 47t93 18.5q39 0 78.5 -13.5t76.5 -29.5t69.5 -29.5t56.5 -13.5q23 0 37 15.5t14 53.5h153q1 -5 0 -27.5t-7 -53.5t-19 -65t-37.5 -63t-62.5 -48t-93 -19q-42 0 -83 13.5t-77.5 30t-68 30t-55.5 13.5q-23 0 -35.5 -14.5 t-12.5 -52.5h-153z" />
<glyph unicode="&#xa1;" horiz-adv-x="384" d="M64 0l64 1152h128l64 -1152h-256zM64 1280v256h256v-256h-256z" />
<glyph unicode="&#xa2;" horiz-adv-x="1027" d="M129 532v201q0 63 2.5 126.5t13 123t31 112.5t56 94.5t88.5 69t129 35.5v114h128v-114q82 -10 137.5 -41t91 -74.5t54 -94.5t27 -99t9.5 -89t1 -65l-256 1q0 37 -1 74t-7 69.5t-19 58t-37 39.5v-866q24 15 37 41t19 61t7 76.5t1 87.5h256q0 -3 0.5 -14.5t0.5 -28.5 q0 -29 -3.5 -70t-14.5 -87.5t-32 -93.5t-56.5 -87t-88 -68.5t-126.5 -37.5v-114h-128v113q-76 7 -129 30.5t-88.5 61t-56 86.5t-31 107.5t-13 124.5t-2.5 137zM385 640q0 -105 1 -180.5t7 -127.5t19 -82t37 -44v865q-24 -17 -37 -50.5t-19 -86.5t-7 -126t-1 -168z" />
<glyph unicode="&#xa3;" horiz-adv-x="896" d="M0 0v128l128 63v577h-128v192h128v192q0 64 2 137.5t12.5 146.5t33.5 141t65.5 119.5t108.5 82.5t162 31q83 0 139 -25.5t91.5 -66.5t54 -93t26.5 -103.5t8.5 -98.5t0.5 -79h-192q0 16 -0.5 41t-3.5 53.5t-10.5 57.5t-22 52t-36.5 37.5t-55 14.5q-48 0 -74 -34t-38 -94 t-14 -142t-2 -178v-192h256v-192h-256v-576h448v-192h-832z" />
<glyph unicode="&#xa4;" d="M105 579l86 86q-33 51 -48 110.5t-15 121.5q0 61 15 120t48 110l-86 86l90 90l86 -86q44 29 101 46t130 17t130 -17t101 -46l86 86l90 -90l-87 -87q33 -50 48.5 -109t15.5 -120q0 -62 -15.5 -121.5t-48.5 -110.5l87 -86l-90 -90l-86 86q-44 -29 -101 -46t-130 -17 t-130 17t-101 46l-86 -86zM320 897q0 -40 11 -78.5t34.5 -69t60 -49t86.5 -18.5t86.5 18.5t60 48.5t34.5 68.5t11 78.5t-11 78.5t-34.5 68.5t-59.5 48.5t-87 18.5t-87 -18t-59.5 -48t-34.5 -68.5t-11 -78.5z" />
<glyph unicode="&#xa5;" d="M48 1792h260l204 -944l202 944h260l-295 -1073h153v-166h-192v-129h192v-168h-192v-256h-256v256h-192v168h192v129h-192v166h149z" />
<glyph unicode="&#xa6;" horiz-adv-x="395" d="M94 -14v628h203v-628h-203zM94 889v629h203v-629h-203z" />
<glyph unicode="&#xa7;" horiz-adv-x="960" d="M96 321l192 64q11 -31 28.5 -64.5t41.5 -62t54 -47t68 -18.5q24 0 47 6.5t41 21.5t29 39.5t11 60.5q0 58 -20.5 96t-43.5 52l-256 156q-65 39 -103 79t-57.5 78.5t-25.5 74.5t-6 68q0 101 46 180t140 121q-60 35 -97 68t-56.5 64t-26 59.5t-6.5 54.5q0 72 24 134t72 107 t120 71t168 26t163 -33.5t112 -84.5t71 -110t38 -110l-192 -64q-11 29 -27.5 62.5t-40.5 62.5t-54.5 48t-69.5 19q-24 0 -47 -6.5t-41 -21.5t-29 -39.5t-11 -60.5q0 -38 21.5 -65t42.5 -43q147 -81 235.5 -147.5t135.5 -124t62 -108.5t15 -102q0 -93 -39.5 -167t-118.5 -119 q75 -59 116.5 -127t41.5 -148q0 -72 -24 -134t-72 -107t-120 -71t-168 -26q-60 0 -108.5 14.5t-87 38t-67 54t-49.5 62.5q-49 73 -72 169zM352 925q0 -38 21 -66t43 -42l96 -63q27 13 48 31q18 16 33 40t15 57q0 14 -7 30t-18 32t-25.5 31.5t-29.5 30.5q-35 33 -80 68 q-27 -17 -48 -39q-18 -19 -33 -46.5t-15 -63.5z" />
<glyph unicode="&#xa8;" horiz-adv-x="896" d="M128 1536v256h256v-256h-256zM512 1536v256h256v-256h-256z" />
<glyph unicode="&#xa9;" horiz-adv-x="1528" d="M70 700q0 99 25 190.5t70 171t108.5 144.5t140.5 111.5t165.5 72t184.5 25.5t184.5 -25.5t165.5 -72t140.5 -111.5t108.5 -144.5t70 -171t25 -190.5t-25 -190t-70 -170.5t-108.5 -144.5t-140.5 -111.5t-165.5 -72t-184.5 -25.5t-184.5 25.5t-165.5 72t-140.5 111.5 t-108.5 144.5t-70 170.5t-25 190zM242 696q0 -117 41 -219.5t111.5 -179t166 -120.5t203.5 -44t203.5 44t166 120.5t111.5 179t41 219.5q0 78 -18.5 150t-52.5 135t-81.5 114t-105.5 88t-125 57t-139 20t-139 -20t-125 -57t-105.5 -88t-81.5 -114t-52.5 -135t-18.5 -150z M475 723q0 53 2 107t11 105t27.5 95.5t51.5 78t83.5 52.5t123.5 19q70 0 118.5 -20t79.5 -52t48 -71t24.5 -76.5t9 -70t1.5 -50.5h-183q0 45 -4.5 81.5t-16 62t-30 39t-45.5 13.5q-35 0 -58.5 -7.5t-37.5 -39t-19.5 -94.5t-5.5 -174q0 -99 2.5 -167t14 -110t34 -60.5 t62.5 -18.5q37 0 58.5 20t32 51.5t13 69t2.5 72.5h179v-16q0 -18 -2.5 -50.5t-11.5 -71t-27 -78t-49.5 -72t-79 -53t-115.5 -20.5q-73 0 -123.5 20.5t-83 56t-50 83.5t-25.5 104.5t-9.5 118t-1.5 123.5z" />
<glyph unicode="&#xaa;" horiz-adv-x="842" d="M53 838q0 28 4 54t17 50.5t38 48.5t66.5 48.5t103.5 49.5t148 52v94q0 48 -8 75.5t-20 41.5t-25 18t-23 4q-49 0 -69.5 -41t-20.5 -110h-178q1 70 22 124.5t57 92.5t85 58t108 20q79 0 130.5 -21.5t81.5 -64.5t41.5 -107t11.5 -149v-293q0 -50 0.5 -84t2 -59t4 -44.5 t7.5 -40.5h-191l-16 111q-35 -65 -84.5 -93t-99.5 -28q-38 0 -73 14.5t-61.5 40t-42.5 61t-16 77.5zM248 883q0 -45 21 -64.5t50 -19.5q31 0 62.5 20t48.5 55v189q-91 -50 -136.5 -90.5t-45.5 -89.5z" />
<glyph unicode="&#xab;" d="M64 576v128l448 512v-320l-256 -255l256 -257v-320zM512 576v128l448 512v-320l-256 -255l256 -257v-320z" />
<glyph unicode="&#xac;" horiz-adv-x="768" d="M128 448v192h512v-384h-128v192h-384z" />
<glyph unicode="&#xad;" horiz-adv-x="768" d="M128 448v192h512v-192h-512z" />
<glyph unicode="&#xae;" horiz-adv-x="1528" d="M70 700q0 99 25 190.5t70 171t108.5 144.5t140.5 111.5t165.5 72t184.5 25.5t184.5 -25.5t165.5 -72t140.5 -111.5t108.5 -144.5t70 -171t25 -190.5t-25 -190t-70 -170.5t-108.5 -144.5t-140.5 -111.5t-165.5 -72t-184.5 -25.5t-184.5 25.5t-165.5 72t-140.5 111.5 t-108.5 144.5t-70 170.5t-25 190zM242 696q0 -117 41 -219.5t111.5 -179t166 -120.5t203.5 -44t203.5 44t166 120.5t111.5 179t41 219.5q0 78 -18.5 150t-52.5 135t-81.5 114t-105.5 88t-125 57t-139 20t-139 -20t-125 -57t-105.5 -88t-81.5 -114t-52.5 -135t-18.5 -150z M516 248v919h240q79 0 131 -21.5t83 -59t43.5 -87t12.5 -106.5q0 -51 -11 -87.5t-29 -62.5t-40.5 -43.5t-44.5 -29.5v-2q0 -10 6 -33t22.5 -69.5t45 -123t74.5 -194.5h-168l-127 385h-82v-385h-156zM672 729h33q39 0 69 4.5t50.5 21t31 50t10.5 92.5q0 78 -30 115t-93 37 h-71v-320z" />
<glyph unicode="&#xb0;" d="M128 1427q0 72 21 140.5t67.5 122.5t119 87t176.5 33q103 0 176 -33t119 -87t67.5 -122.5t21.5 -140.5t-21.5 -141.5t-67.5 -123.5t-119 -87t-176 -33t-176 33t-119 87t-67.5 123.5t-21.5 141.5zM320 1427q0 -40 11 -78.5t34.5 -69t60 -49t86.5 -18.5t86.5 18.5t60 48.5 t34.5 68.5t11 78.5t-11 78.5t-34.5 68.5t-59.5 48.5t-87 18.5t-87 -18t-59.5 -48t-34.5 -68.5t-11 -78.5z" />
<glyph unicode="&#xb1;" horiz-adv-x="832" d="M128 0v192h576v-192h-576zM128 576v192h192v192h192v-192h192v-192h-192v-192h-192v192h-192z" />
<glyph unicode="&#xb2;" horiz-adv-x="640" d="M64 576v128l192 256q36 48 60.5 85t39.5 67t21.5 55t6.5 49t-1 47t-7 41t-19 29t-37 11t-37 -11t-19 -29t-7 -41t-1 -47h-192q0 48 13 94t43 82t79 58t121 22t121 -22t79 -58t43 -82t13 -94t-23 -98t-65 -110t-101 -134t-131 -170h320v-128h-512z" />
<glyph unicode="&#xb3;" horiz-adv-x="768" d="M128 896h192q0 -24 1 -47t7 -41t19 -29t37 -11t37 11t19 29t7 41t1 47t-2 47t-14 41t-38 29t-74 11v128q48 0 74 11t38 29t14 41t2 47t-1 47t-7 41t-19 29t-37 11t-37 -11t-19 -29t-7 -41t-1 -47h-192q0 48 13 94t43 82t79 58t121 22t121 -22t79 -58t43 -82t13 -94 q0 -36 -8.5 -63.5t-22 -47.5t-30.5 -34t-35 -23q-42 -21 -96 -24q54 -3 96 -24q18 -9 35 -23t30.5 -34t22 -47.5t8.5 -63.5q0 -48 -13 -94t-43 -82t-79 -58t-121 -22t-121 22t-79 58t-43 82t-13 94z" />
<glyph unicode="&#xb4;" horiz-adv-x="640" d="M128 1408l128 384h256l-256 -384h-128z" />
<glyph unicode="&#xb5;" d="M128 -256v1536h256v-1013q0 -42 25.5 -66t62.5 -24q24 0 46.5 8.5t43.5 21.5t40.5 29t37.5 31v1013h256v-1280h-256v138q-24 -52 -67 -80t-85 -41q-49 -15 -104 -17v-256h-256z" />
<glyph unicode="&#xb6;" horiz-adv-x="952" d="M16 1204q0 158 100.5 245t306.5 87h473v-1536h-178v876h-139v-876h-197v876q-77 0 -143.5 21.5t-116 63t-78 102.5t-28.5 141z" />
<glyph unicode="&#xb7;" horiz-adv-x="384" d="M64 704v256h256v-256h-256z" />
<glyph unicode="&#xb8;" horiz-adv-x="576" d="M64 -384q72 0 121 1t79 7t43 19t13 37q0 12 -8.5 24t-22 23t-30.5 21.5t-35 19.5q-42 21 -96 40v192h128v-128q72 -20 128 -48q24 -12 47 -27t41 -33t29 -39t11 -45q0 -72 -34 -111t-94 -57t-142 -21t-178 -3v128z" />
<glyph unicode="&#xb9;" horiz-adv-x="512" d="M64 1216v128q48 24 86 47t68.5 46.5t55.5 48t46 50.5h64v-896h-192v576h-128z" />
<glyph unicode="&#xba;" horiz-adv-x="899" d="M-1 410v319q0 96 17 174t57.5 133.5t108 86t168.5 30.5q93 0 159.5 -31.5t109 -88t62 -134.5t19.5 -170v-319q0 -92 -19.5 -170t-62 -134.5t-109 -88t-159.5 -31.5q-101 0 -168.5 30t-108 85.5t-57.5 134t-17 174.5zM212 451q0 -87 9 -139.5t26 -80t41.5 -36.5t56.5 -9 q33 0 57.5 8.5t40.5 36t23.5 80t7.5 140.5v237q0 88 -7.5 140t-23.5 79.5t-40.5 36t-57.5 8.5q-32 0 -56.5 -8.5t-41.5 -36.5t-26 -80t-9 -139v-237z" />
<glyph unicode="&#xbb;" d="M64 64v320l256 257l-256 255v320l448 -512v-128zM512 64v320l256 257l-256 255v320l448 -512v-128z" />
<glyph unicode="&#xbc;" horiz-adv-x="1601" d="M64 1216v128q48 24 86 47t68.5 46.5t55.5 48t46 50.5h64v-896h-192v576h-128zM320 0l575 1792h257l-576 -1792h-256zM896 257v128l340 576h172v-576h128v-128h-128v-256h-192v256h-320zM1088 385h128v256z" />
<glyph unicode="&#xbd;" horiz-adv-x="1600" d="M64 1216v128q48 24 86 47t68.5 46.5t55.5 48t46 50.5h64v-896h-192v576h-128zM320 0l575 1792h257l-576 -1792h-256zM1024 1v128l192 256q36 48 60.5 85t39.5 67t21.5 55t6.5 49t-1 47t-7 41t-19 29t-37 11t-37 -11t-19 -29t-7 -41t-1 -47h-192q0 48 13 94t43 82t79 58 t121 22t121 -22t79 -58t43 -82t13 -94t-23 -98t-65 -110t-101 -134t-131 -170h320v-128h-512z" />
<glyph unicode="&#xbe;" horiz-adv-x="1793" d="M128 896h192q0 -24 1 -47t7 -41t19 -29t37 -11t37 11t19 29t7 41t1 47t-2 47t-14 41t-38 29t-74 11v128q48 0 74 11t38 29t14 41t2 47t-1 47t-7 41t-19 29t-37 11t-37 -11t-19 -29t-7 -41t-1 -47h-192q0 48 13 94t43 82t79 58t121 22t121 -22t79 -58t43 -82t13 -94 q0 -36 -8.5 -63.5t-22 -47.5t-30.5 -34t-35 -23q-42 -21 -96 -24q54 -3 96 -24q18 -9 35 -23t30.5 -34t22 -47.5t8.5 -63.5q0 -48 -13 -94t-43 -82t-79 -58t-121 -22t-121 22t-79 58t-43 82t-13 94zM448 0l575 1792h257l-576 -1792h-256zM1024 257v128l340 576h172v-576h128 v-128h-128v-256h-192v256h-320zM1216 385h128v256z" />
<glyph unicode="&#xbf;" horiz-adv-x="891" d="M80 346q0 37 11.5 76.5t30.5 79t43 78t49 73.5q58 81 135 159v217h216v-245q0 -1 -18.5 -24.5t-45.5 -61t-59.5 -85.5t-59.5 -98.5t-45.5 -99t-18.5 -87.5q0 -56 25 -91t87 -35q44 0 71.5 19t43 49.5t21 70t5.5 80.5h219v-25q0 -84 -21 -157.5t-65 -127.5t-112 -85 t-162 -31q-99 0 -166.5 26.5t-108 73.5t-58 111.5t-17.5 139.5zM343 1106v223h221v-223h-221z" />
<glyph unicode="&#xc0;" horiz-adv-x="1152" d="M64 0l384 1792h256l384 -1792h-256l-96 448h-320l-96 -448h-256zM384 2304h256l128 -384h-128zM448 640h256l-128 768z" />
<glyph unicode="&#xc1;" horiz-adv-x="1152" d="M64 0l384 1792h256l384 -1792h-256l-96 448h-320l-96 -448h-256zM384 1920l128 384h256l-256 -384h-128zM448 640h256l-128 768z" />
<glyph unicode="&#xc2;" horiz-adv-x="1152" d="M64 0l384 1792h256l384 -1792h-256l-96 448h-320l-96 -448h-256zM258 1920l192 384h256l192 -384h-192l-128 256l-128 -256h-192zM448 640h256l-128 768z" />
<glyph unicode="&#xc3;" horiz-adv-x="1152" d="M64 0l384 1792h256l384 -1792h-256l-96 448h-320l-96 -448h-256zM224 1984q-1 6 0 28.5t7 52.5t19 64t37.5 62.5t62.5 47t93 18.5q39 0 78.5 -13.5t76.5 -29.5t69.5 -29.5t56.5 -13.5q23 0 37 15.5t14 53.5h153q1 -5 0 -27.5t-7 -53.5t-19 -65t-37.5 -63t-62.5 -48 t-93 -19q-42 0 -83 13.5t-77.5 30t-68 30t-55.5 13.5q-23 0 -35.5 -14.5t-12.5 -52.5h-153zM448 640h256l-128 768z" />
<glyph unicode="&#xc4;" horiz-adv-x="1152" d="M64 0l384 1792h256l384 -1792h-256l-96 448h-320l-96 -448h-256zM256 1920v256h256v-256h-256zM448 640h256l-128 768zM640 1920v256h256v-256h-256z" />
<glyph unicode="&#xc5;" horiz-adv-x="1152" d="M64 0l384 1792h256l384 -1792h-256l-96 448h-320l-96 -448h-256zM320 2176q0 48 15.5 94t47 82t80 58t113.5 22t113.5 -22t80 -58t47 -82t15.5 -94t-15.5 -94t-47 -82t-80 -58t-113.5 -22t-113.5 22t-80 58t-47 82t-15.5 94zM448 640h256l-128 768zM448 2176q0 -24 7 -47 t22 -41t39.5 -29t59.5 -11q34 0 58.5 11t40 29t22.5 41t7 47t-7 47t-22.5 41t-40 29t-58.5 11t-58.5 -11t-40 -29t-22.5 -41t-7 -47z" />
<glyph unicode="&#xc6;" horiz-adv-x="1408" d="M-126 0l764 1792h706v-192h-448v-576h320v-192h-320v-640h448v-192h-704v448h-320l-191 -448h-255zM393 640h247v658z" />
<glyph unicode="&#xc7;" horiz-adv-x="1216" d="M128 641v511q0 144 26 265t86 208t158 136t242 49q136 0 233.5 -43.5t159 -121.5t90.5 -187.5t29 -241.5h-256q0 96 -13 168t-43 120t-79 72t-121 24t-121 -24t-79 -72t-43 -120t-13 -168v-640q0 -72 13 -141t43 -123t79 -87t121 -33t121 33t79 87t43 123t13 141v64h256 v-64q0 -120 -26 -228t-86 -189t-158 -129t-242 -48t-242 49t-158 136.5t-86 208.5t-26 265zM512 -384q72 0 121 1t79 7t43 19t13 37q0 12 -8.5 24t-22 23t-30.5 21.5t-35 19.5q-42 21 -96 40v192h128v-128q72 -20 128 -48q24 -12 47 -27t41 -33t29 -39t11 -45 q0 -72 -34 -111t-94 -57t-142 -21t-178 -3v128z" />
<glyph unicode="&#xc8;" horiz-adv-x="960" d="M128 0v1792h704v-192h-448v-576h320v-192h-320v-640h448v-192h-704zM288 2304h256l128 -384h-128z" />
<glyph unicode="&#xc9;" horiz-adv-x="960" d="M128 0v1792h704v-192h-448v-576h320v-192h-320v-640h448v-192h-704zM288 1920l128 384h256l-256 -384h-128z" />
<glyph unicode="&#xca;" horiz-adv-x="960" d="M128 0v1792h704v-192h-448v-576h320v-192h-320v-640h448v-192h-704zM162 1920l192 384h256l192 -384h-192l-128 256l-128 -256h-192z" />
<glyph unicode="&#xcb;" horiz-adv-x="960" d="M128 0v1792h704v-192h-448v-576h320v-192h-320v-640h448v-192h-704zM160 2048v256h256v-256h-256zM544 2048v256h256v-256h-256z" />
<glyph unicode="&#xcc;" horiz-adv-x="512" d="M65 2304h256l128 -384h-128zM128 0v1792h256v-1792h-256z" />
<glyph unicode="&#xcd;" horiz-adv-x="512" d="M65 1920l128 384h256l-256 -384h-128zM128 0v1792h256v-1792h-256z" />
<glyph unicode="&#xce;" horiz-adv-x="512" d="M-61 1920l192 384h256l192 -384h-192l-128 256l-128 -256h-192zM128 0v1792h256v-1792h-256z" />
<glyph unicode="&#xcf;" horiz-adv-x="512" d="M-63 2048v256h256v-256h-256zM128 0v1792h256v-1792h-256zM321 2048v256h256v-256h-256z" />
<glyph unicode="&#xd0;" horiz-adv-x="1152" d="M64 832v192h64v768h384q144 0 242 -26t158 -86t86 -158t26 -242v-704q0 -144 -26 -252t-86 -180t-158.5 -108t-243.5 -36h-382v832h-64zM384 192h128q96 0 148 25t76 79t28 139t4 205v576q0 96 -4 168t-28.5 120t-77.5 72t-151 24h-123v-576h64v-192h-64v-640z" />
<glyph unicode="&#xd1;" horiz-adv-x="1152" d="M128 0v1792h192l448 -1108v1108h256v-1792h-182l-458 1192v-1192h-256zM224 1984q-1 6 0 28.5t7 52.5t19 64t37.5 62.5t62.5 47t93 18.5q39 0 78.5 -13.5t76.5 -29.5t69.5 -29.5t56.5 -13.5q23 0 37 15.5t14 53.5h153q1 -5 0 -27.5t-7 -53.5t-19 -65t-37.5 -63t-62.5 -48 t-93 -19q-42 0 -83 13.5t-77.5 30t-68 30t-55.5 13.5q-23 0 -35.5 -14.5t-12.5 -52.5h-153z" />
<glyph unicode="&#xd2;" horiz-adv-x="1280" d="M128 576v640q0 80 10 155t33.5 141t62.5 121t95.5 94t133.5 61t177 22q147 0 245.5 -48t157.5 -129t84 -189t25 -228v-640q0 -120 -25 -228t-84 -189t-157.5 -129t-245.5 -48q-100 0 -177 22t-133.5 61t-95.5 94t-62.5 121t-33.5 141t-10 155zM384 512q0 -72 13 -131 t43 -101t79 -65t121 -23t121 23t79 65t43 101t13 131v768q0 72 -13 131t-43 101t-79 65t-121 23t-121 -23t-79 -65t-43 -101t-13 -131v-768zM448 2304h256l128 -384h-128z" />
<glyph unicode="&#xd3;" horiz-adv-x="1280" d="M128 576v640q0 80 10 155t33.5 141t62.5 121t95.5 94t133.5 61t177 22q147 0 245.5 -48t157.5 -129t84 -189t25 -228v-640q0 -120 -25 -228t-84 -189t-157.5 -129t-245.5 -48q-100 0 -177 22t-133.5 61t-95.5 94t-62.5 121t-33.5 141t-10 155zM384 512q0 -72 13 -131 t43 -101t79 -65t121 -23t121 23t79 65t43 101t13 131v768q0 72 -13 131t-43 101t-79 65t-121 23t-121 -23t-79 -65t-43 -101t-13 -131v-768zM448 1920l128 384h256l-256 -384h-128z" />
<glyph unicode="&#xd4;" horiz-adv-x="1280" d="M128 576v640q0 80 10 155t33.5 141t62.5 121t95.5 94t133.5 61t177 22q147 0 245.5 -48t157.5 -129t84 -189t25 -228v-640q0 -120 -25 -228t-84 -189t-157.5 -129t-245.5 -48q-100 0 -177 22t-133.5 61t-95.5 94t-62.5 121t-33.5 141t-10 155zM322 1920l192 384h256 l192 -384h-192l-128 256l-128 -256h-192zM384 512q0 -72 13 -131t43 -101t79 -65t121 -23t121 23t79 65t43 101t13 131v768q0 72 -13 131t-43 101t-79 65t-121 23t-121 -23t-79 -65t-43 -101t-13 -131v-768z" />
<glyph unicode="&#xd5;" horiz-adv-x="1280" d="M128 576v640q0 80 10 155t33.5 141t62.5 121t95.5 94t133.5 61t177 22q147 0 245.5 -48t157.5 -129t84 -189t25 -228v-640q0 -120 -25 -228t-84 -189t-157.5 -129t-245.5 -48q-100 0 -177 22t-133.5 61t-95.5 94t-62.5 121t-33.5 141t-10 155zM288 1984q-1 6 0 28.5 t7 52.5t19 64t37.5 62.5t62.5 47t93 18.5q39 0 78.5 -13.5t76.5 -29.5t69.5 -29.5t56.5 -13.5q23 0 37 15.5t14 53.5h153q1 -5 0 -27.5t-7 -53.5t-19 -65t-37.5 -63t-62.5 -48t-93 -19q-42 0 -83 13.5t-77.5 30t-68 30t-55.5 13.5q-23 0 -35.5 -14.5t-12.5 -52.5h-153z M384 512q0 -72 13 -131t43 -101t79 -65t121 -23t121 23t79 65t43 101t13 131v768q0 72 -13 131t-43 101t-79 65t-121 23t-121 -23t-79 -65t-43 -101t-13 -131v-768z" />
<glyph unicode="&#xd6;" horiz-adv-x="1280" d="M128 576v640q0 80 10 155t33.5 141t62.5 121t95.5 94t133.5 61t177 22q147 0 245.5 -48t157.5 -129t84 -189t25 -228v-640q0 -120 -25 -228t-84 -189t-157.5 -129t-245.5 -48q-100 0 -177 22t-133.5 61t-95.5 94t-62.5 121t-33.5 141t-10 155zM320 2048v256h256v-256 h-256zM384 512q0 -72 13 -131t43 -101t79 -65t121 -23t121 23t79 65t43 101t13 131v768q0 72 -13 131t-43 101t-79 65t-121 23t-121 -23t-79 -65t-43 -101t-13 -131v-768zM704 2048v256h256v-256h-256z" />
<glyph unicode="&#xd7;" horiz-adv-x="768" d="M64 448l192 192l-192 192l128 128l192 -192l192 192l128 -128l-192 -192l192 -192l-128 -128l-192 192l-192 -192z" />
<glyph unicode="&#xd8;" horiz-adv-x="1280" d="M128 576v640q0 80 10 155t33.5 141t62.5 121t95.5 94t133.5 61t177 22q89 0 160 -18l32 128h128l-44 -175q77 -45 127 -112q59 -81 84 -189t25 -228v-640q0 -120 -25 -228t-84 -189t-157.5 -129t-245.5 -48q-89 0 -160 18l-32 -128h-128l43 172q-18 10 -34 21 q-56 39 -95 94t-62.5 121t-33.5 141t-10 155zM384 512q0 -72 13 -131q10 -46 30 -81l320 1283q-45 17 -107 17q-72 0 -121 -23t-79 -65t-43 -101t-13 -131v-768zM532 209q45 -17 108 -17q72 0 121 23t79 65t43 101t13 131v768q0 72 -13 131q-10 45 -30 81z" />
<glyph unicode="&#xd9;" horiz-adv-x="1280" d="M128 640v1152h256v-1152q0 -48 1 -100t8.5 -101.5t22.5 -94.5t43.5 -78.5t72.5 -53.5t108 -20t108 20t72.5 53.5t43.5 78.5t22.5 94.5t8.5 101.5t1 100v1152h256v-1152q0 -80 -7 -160t-26.5 -153t-54.5 -136.5t-92 -110t-138.5 -73t-193.5 -26.5t-193.5 26.5t-138.5 73 t-92 110t-54.5 136.5t-26.5 153t-7 160zM448 2304h256l128 -384h-128z" />
<glyph unicode="&#xda;" horiz-adv-x="1280" d="M128 640v1152h256v-1152q0 -48 1 -100t8.5 -101.5t22.5 -94.5t43.5 -78.5t72.5 -53.5t108 -20t108 20t72.5 53.5t43.5 78.5t22.5 94.5t8.5 101.5t1 100v1152h256v-1152q0 -80 -7 -160t-26.5 -153t-54.5 -136.5t-92 -110t-138.5 -73t-193.5 -26.5t-193.5 26.5t-138.5 73 t-92 110t-54.5 136.5t-26.5 153t-7 160zM448 1920l128 384h256l-256 -384h-128z" />
<glyph unicode="&#xdb;" horiz-adv-x="1280" d="M128 640v1152h256v-1152q0 -48 1 -100t8.5 -101.5t22.5 -94.5t43.5 -78.5t72.5 -53.5t108 -20t108 20t72.5 53.5t43.5 78.5t22.5 94.5t8.5 101.5t1 100v1152h256v-1152q0 -80 -7 -160t-26.5 -153t-54.5 -136.5t-92 -110t-138.5 -73t-193.5 -26.5t-193.5 26.5t-138.5 73 t-92 110t-54.5 136.5t-26.5 153t-7 160zM322 1920l192 384h256l192 -384h-192l-128 256l-128 -256h-192z" />
<glyph unicode="&#xdc;" horiz-adv-x="1280" d="M128 640v1152h256v-1152q0 -48 1 -100t8.5 -101.5t22.5 -94.5t43.5 -78.5t72.5 -53.5t108 -20t108 20t72.5 53.5t43.5 78.5t22.5 94.5t8.5 101.5t1 100v1152h256v-1152q0 -80 -7 -160t-26.5 -153t-54.5 -136.5t-92 -110t-138.5 -73t-193.5 -26.5t-193.5 26.5t-138.5 73 t-92 110t-54.5 136.5t-26.5 153t-7 160zM320 2048v256h256v-256h-256zM704 2048v256h256v-256h-256z" />
<glyph unicode="&#xdd;" horiz-adv-x="1152" d="M64 1792h256l256 -896l256 896h256l-384 -1216v-576h-256v576zM384 1920l128 384h256l-256 -384h-128z" />
<glyph unicode="&#xde;" horiz-adv-x="952" d="M72 0v1536h252v-255h180q103 0 179.5 -31t127 -89.5t75.5 -143t25 -191.5q0 -223 -118 -336.5t-336 -105.5h-131v-384h-254zM324 601h45q64 0 115.5 8t88 32t56.5 68.5t20 118.5q0 64 -14 108t-44 71t-77 39t-113 12h-77v-457z" />
<glyph unicode="&#xdf;" horiz-adv-x="1152" d="M128 0v1354q0 123 33 209.5t87 141.5t123 80t141 25q96 0 166.5 -21t120.5 -57t81 -83t49 -99t24.5 -105t6.5 -101q0 -144 -51.5 -242.5t-167.5 -162.5q58 -16 109.5 -51t90 -88.5t61 -125.5t22.5 -162q0 -120 -26 -218t-86 -167t-158 -107t-242 -38v210q72 0 121 14 t79 50t43 98t13 158q0 147 -67.5 223.5t-188.5 76.5v212q48 0 85.5 23t62.5 65t38 101t13 131q0 61 -7.5 108.5t-26 80.5t-51 50t-82.5 17q-48 0 -79 -16.5t-49 -47.5t-25 -75.5t-7 -101.5v-1359h-256z" />
<glyph unicode="&#xe0;" d="M128 283q0 49 5 94t23 87.5t51.5 83.5t90.5 82.5t140.5 84.5t201.5 89v92q0 72 -11 111t-29 57t-41 21t-47 3t-47 -3t-41 -21t-29 -57t-11 -111h-256q1 91 28.5 165.5t77.5 127t120.5 81t157.5 28.5q103 0 175.5 -36t119 -93t68 -129t21.5 -144v-576q0 -72 5 -131 t11 -101q4 -25 8 -46.5t9 -41.5h-255l-34 192q-24 -48 -49 -87t-55 -66t-67 -42t-85 -15t-94 25t-82 67t-58 96t-22 113zM320 1792h256l128 -384h-128zM384 351q0 -48 11 -78.5t29 -48.5t41 -25t47 -7t47 14.5t41 32.5q11 10 20.5 21.5t19.5 25.5v354q-65 -43 -113 -77 t-79.5 -67t-47.5 -67.5t-16 -77.5z" />
<glyph unicode="&#xe1;" d="M128 283q0 49 5 94t23 87.5t51.5 83.5t90.5 82.5t140.5 84.5t201.5 89v92q0 72 -11 111t-29 57t-41 21t-47 3t-47 -3t-41 -21t-29 -57t-11 -111h-256q1 91 28.5 165.5t77.5 127t120.5 81t157.5 28.5q103 0 175.5 -36t119 -93t68 -129t21.5 -144v-576q0 -72 5 -131 t11 -101q4 -25 8 -46.5t9 -41.5h-255l-34 192q-24 -48 -49 -87t-55 -66t-67 -42t-85 -15t-94 25t-82 67t-58 96t-22 113zM320 1408l128 384h256l-256 -384h-128zM384 351q0 -48 11 -78.5t29 -48.5t41 -25t47 -7t47 14.5t41 32.5q11 10 20.5 21.5t19.5 25.5v354 q-65 -43 -113 -77t-79.5 -67t-47.5 -67.5t-16 -77.5z" />
<glyph unicode="&#xe2;" d="M128 283q0 49 5 94t23 87.5t51.5 83.5t90.5 82.5t140.5 84.5t201.5 89v92q0 72 -11 111t-29 57t-41 21t-47 3t-47 -3t-41 -21t-29 -57t-11 -111h-256q1 91 28.5 165.5t77.5 127t120.5 81t157.5 28.5q103 0 175.5 -36t119 -93t68 -129t21.5 -144v-576q0 -72 5 -131 t11 -101q4 -25 8 -46.5t9 -41.5h-255l-34 192q-24 -48 -49 -87t-55 -66t-67 -42t-85 -15t-94 25t-82 67t-58 96t-22 113zM194 1408l192 384h256l192 -384h-192l-128 256l-128 -256h-192zM384 351q0 -48 11 -78.5t29 -48.5t41 -25t47 -7t47 14.5t41 32.5q11 10 20.5 21.5 t19.5 25.5v354q-65 -43 -113 -77t-79.5 -67t-47.5 -67.5t-16 -77.5z" />
<glyph unicode="&#xe3;" d="M128 283q0 49 5 94t23 87.5t51.5 83.5t90.5 82.5t140.5 84.5t201.5 89v92q0 72 -11 111t-29 57t-41 21t-47 3t-47 -3t-41 -21t-29 -57t-11 -111h-256q1 91 28.5 165.5t77.5 127t120.5 81t157.5 28.5q103 0 175.5 -36t119 -93t68 -129t21.5 -144v-576q0 -72 5 -131 t11 -101q4 -25 8 -46.5t9 -41.5h-255l-34 192q-24 -48 -49 -87t-55 -66t-67 -42t-85 -15t-94 25t-82 67t-58 96t-22 113zM160 1472q-1 6 0 28.5t7 52.5t19 64t37.5 62.5t62.5 47t93 18.5q39 0 78.5 -13.5t76.5 -29.5t69.5 -29.5t56.5 -13.5q23 0 37 15.5t14 53.5h153 q1 -5 0 -27.5t-7 -53.5t-19 -65t-37.5 -63t-62.5 -48t-93 -19q-42 0 -83 13.5t-77.5 30t-68 30t-55.5 13.5q-23 0 -35.5 -14.5t-12.5 -52.5h-153zM384 351q0 -48 11 -78.5t29 -48.5t41 -25t47 -7t47 14.5t41 32.5q11 10 20.5 21.5t19.5 25.5v354q-65 -43 -113 -77t-79.5 -67 t-47.5 -67.5t-16 -77.5z" />
<glyph unicode="&#xe4;" d="M128 283q0 49 5 94t23 87.5t51.5 83.5t90.5 82.5t140.5 84.5t201.5 89v92q0 72 -11 111t-29 57t-41 21t-47 3t-47 -3t-41 -21t-29 -57t-11 -111h-256q1 91 28.5 165.5t77.5 127t120.5 81t157.5 28.5q103 0 175.5 -36t119 -93t68 -129t21.5 -144v-576q0 -72 5 -131 t11 -101q4 -25 8 -46.5t9 -41.5h-255l-34 192q-24 -48 -49 -87t-55 -66t-67 -42t-85 -15t-94 25t-82 67t-58 96t-22 113zM192 1536v256h256v-256h-256zM384 351q0 -48 11 -78.5t29 -48.5t41 -25t47 -7t47 14.5t41 32.5q11 10 20.5 21.5t19.5 25.5v354q-65 -43 -113 -77 t-79.5 -67t-47.5 -67.5t-16 -77.5zM576 1536v256h256v-256h-256z" />
<glyph unicode="&#xe5;" d="M128 283q0 49 5 94t23 87.5t51.5 83.5t90.5 82.5t140.5 84.5t201.5 89v92q0 72 -11 111t-29 57t-41 21t-47 3t-47 -3t-41 -21t-29 -57t-11 -111h-256q1 91 28.5 165.5t77.5 127t120.5 81t157.5 28.5q103 0 175.5 -36t119 -93t68 -129t21.5 -144v-576q0 -72 5 -131 t11 -101q4 -25 8 -46.5t9 -41.5h-255l-34 192q-24 -48 -49 -87t-55 -66t-67 -42t-85 -15t-94 25t-82 67t-58 96t-22 113zM256 1664q0 48 15.5 94t47 82t80 58t113.5 22t113.5 -22t80 -58t47 -82t15.5 -94t-15.5 -94t-47 -82t-80 -58t-113.5 -22t-113.5 22t-80 58t-47 82 t-15.5 94zM384 351q0 -48 11 -78.5t29 -48.5t41 -25t47 -7t47 14.5t41 32.5q11 10 20.5 21.5t19.5 25.5v354q-65 -43 -113 -77t-79.5 -67t-47.5 -67.5t-16 -77.5zM384 1664q0 -24 7 -47t22 -41t39.5 -29t59.5 -11q34 0 58.5 11t40 29t22.5 41t7 47t-7 47t-22.5 41t-40 29 t-58.5 11t-58.5 -11t-40 -29t-22.5 -41t-7 -47z" />
<glyph unicode="&#xe6;" horiz-adv-x="1536" d="M128 283q0 49 5.5 94t23 87.5t51 83.5t90.5 82.5t140.5 84.5t201.5 89v92q0 72 -11 111t-29 57t-41 21t-47 3t-47 -3t-41 -21t-29 -57t-11 -111h-256q1 91 28.5 165.5t77.5 127t120.5 81t157.5 28.5q70 0 118.5 -22t79 -48.5t44.5 -49.5t15 -26q1 3 14.5 26t43.5 49.5 t78 48.5t118 22q96 0 168 -30.5t120 -103t72 -193t24 -301.5v-30h-511v-178q1 -56 7 -105t19.5 -85.5t37.5 -58t63 -21.5q49 0 75 22t38 58t14 82t2 94h255q0 -240 -96 -353t-289 -113q-71 0 -119.5 22.5t-78.5 50.5q-35 32 -56 73q-88 -77 -175.5 -112t-166.5 -35 q-63 0 -117.5 21t-94.5 60t-63 95t-23 126zM384 351q0 -48 11 -78.5t29 -48.5t41 -25t47 -7q18 0 42 6t48 14.5t45.5 17.5t35.5 16q-21 72 -32 169t-12 224q-65 -42 -112.5 -76.5t-79.5 -67t-47.5 -67t-15.5 -77.5zM896 768h255q0 48 -1.5 104t-13.5 104t-38 80t-75 32 q-39 0 -63 -21t-37.5 -55t-19.5 -76.5t-7 -85.5v-82z" />
<glyph unicode="&#xe7;" horiz-adv-x="1027" d="M128 640q0 64 2 137.5t12.5 146.5t33.5 141t65.5 119.5t108.5 82.5t162 31q98 0 164.5 -25.5t109 -66.5t65.5 -93t33 -103.5t11 -98.5t1 -79h-256q0 16 -0.5 41t-3.5 53.5t-10.5 57.5t-22 52t-36.5 37.5t-55 14.5q-48 0 -74 -34t-38 -94t-14 -142t-2 -178t2 -178t14 -142 t38 -94t74 -34t74 22t38 58t14 82t2 94h256q0 -32 -2 -79t-13.5 -98.5t-35 -103.5t-66 -93t-108 -66.5t-159.5 -25.5q-96 0 -162 31t-108.5 82.5t-65.5 119.5t-33.5 141t-12.5 146.5t-2 137.5zM384 -384q72 0 121 1t79 7t43 19t13 37q0 12 -8.5 24t-22 23t-30.5 21.5 t-35 19.5q-42 21 -96 40v192h128v-128q72 -20 128 -48q24 -12 47 -27t41 -33t29 -39t11 -45q0 -72 -34 -111t-94 -57t-142 -21t-178 -3v128z" />
<glyph unicode="&#xe8;" d="M128 670q0 181 24 301.5t72 193t120 103t168 30.5t168 -30.5t120 -103t72 -193t24 -301.5v-30h-512v-64q0 -72 2 -141t14 -123t38 -87t74 -33q49 0 75 22t38 58t14 82t2 94h255q0 -240 -96 -353t-289 -113q-96 0 -167.5 31.5t-119.5 109.5t-72 211t-24 336zM320 1792h256 l128 -384h-128zM384 768h256q0 48 -1.5 104t-13.5 104t-38 80t-75 32q-48 0 -74 -32t-38 -80t-14 -104t-2 -104z" />
<glyph unicode="&#xe9;" d="M128 670q0 181 24 301.5t72 193t120 103t168 30.5t168 -30.5t120 -103t72 -193t24 -301.5v-30h-512v-64q0 -72 2 -141t14 -123t38 -87t74 -33q49 0 75 22t38 58t14 82t2 94h255q0 -240 -96 -353t-289 -113q-96 0 -167.5 31.5t-119.5 109.5t-72 211t-24 336zM320 1408 l128 384h256l-256 -384h-128zM384 768h256q0 48 -1.5 104t-13.5 104t-38 80t-75 32q-48 0 -74 -32t-38 -80t-14 -104t-2 -104z" />
<glyph unicode="&#xea;" d="M128 670q0 181 24 301.5t72 193t120 103t168 30.5t168 -30.5t120 -103t72 -193t24 -301.5v-30h-512v-64q0 -72 2 -141t14 -123t38 -87t74 -33q49 0 75 22t38 58t14 82t2 94h255q0 -240 -96 -353t-289 -113q-96 0 -167.5 31.5t-119.5 109.5t-72 211t-24 336zM194 1408 l192 384h256l192 -384h-192l-128 256l-128 -256h-192zM384 768h256q0 48 -1.5 104t-13.5 104t-38 80t-75 32q-48 0 -74 -32t-38 -80t-14 -104t-2 -104z" />
<glyph unicode="&#xeb;" d="M128 670q0 181 24 301.5t72 193t120 103t168 30.5t168 -30.5t120 -103t72 -193t24 -301.5v-30h-512v-64q0 -72 2 -141t14 -123t38 -87t74 -33q49 0 75 22t38 58t14 82t2 94h255q0 -240 -96 -353t-289 -113q-96 0 -167.5 31.5t-119.5 109.5t-72 211t-24 336zM192 1536v256 h256v-256h-256zM384 768h256q0 48 -1.5 104t-13.5 104t-38 80t-75 32q-48 0 -74 -32t-38 -80t-14 -104t-2 -104zM576 1536v256h256v-256h-256z" />
<glyph unicode="&#xec;" horiz-adv-x="384" d="M-3 1792h256l128 -384h-128zM78 0v1135h221v-1135h-221z" />
<glyph unicode="&#xed;" horiz-adv-x="384" d="M-3 1408l128 384h256l-256 -384h-128zM78 0v1135h221v-1135h-221z" />
<glyph unicode="&#xee;" horiz-adv-x="384" d="M-129 1408l192 384h256l192 -384h-192l-128 256l-128 -256h-192zM78 0v1135h221v-1135h-221z" />
<glyph unicode="&#xef;" horiz-adv-x="375" d="M-131 1536v256h256v-256h-256zM78 0v1135h221v-1135h-221zM253 1536v256h256v-256h-256z" />
<glyph unicode="&#xf0;" horiz-adv-x="1152" d="M129 640q0 143 24 264t71.5 208.5t119.5 136.5t168 49q70 0 118.5 -22t78.5 -48.5t44 -49.5t15 -26q0 100 -17 171.5t-52 122.5l-443 -102v128l320 74q-71 32 -166.5 43t-217.5 11v210q118 0 218.5 -9.5t183.5 -32t149.5 -61t116.5 -96.5l228 53v-128l-156 -36 q47 -96 69.5 -228t22.5 -312v-384q0 -144 -34 -255t-94 -186t-142 -114t-178 -39q-132 0 -218.5 49t-137.5 136t-71 208t-20 265zM384 704q0 -144 12 -242t36 -158t60 -86t84 -26t84 23t60 65t36 101t12 131v466q-20 30 -48 55q-24 20 -60 37.5t-84 17.5q-192 0 -192 -384z " />
<glyph unicode="&#xf1;" d="M128 0v1280h256v-138q64 58 115 90t90.5 46.5t69.5 17t53 2.5q42 0 76 -17.5t58 -46.5t37 -66.5t13 -76.5v-1091h-256v960q0 24 -1.5 47t-10.5 41t-28.5 29t-55.5 11q-49 0 -86.5 -22.5t-73.5 -52.5v-1013h-256zM160 1472q-1 6 0 28.5t7 52.5t19 64t37.5 62.5t62.5 47 t93 18.5q39 0 78.5 -13.5t76.5 -29.5t69.5 -29.5t56.5 -13.5q23 0 37 15.5t14 53.5h153q1 -5 0 -27.5t-7 -53.5t-19 -65t-37.5 -63t-62.5 -48t-93 -19q-42 0 -83 13.5t-77.5 30t-68 30t-55.5 13.5q-23 0 -35.5 -14.5t-12.5 -52.5h-153z" />
<glyph unicode="&#xf2;" d="M128 448v384q0 32 2 79t12.5 98.5t33.5 103.5t65.5 93t108.5 66.5t162 25.5t162 -25.5t108.5 -66.5t65.5 -93t33.5 -103.5t12.5 -98.5t2 -79v-384q0 -32 -2 -79t-12.5 -98.5t-33.5 -103.5t-65.5 -93t-108.5 -66.5t-162 -25.5t-162 25.5t-108.5 66.5t-65.5 93t-33.5 103.5 t-12.5 98.5t-2 79zM320 1792h256l128 -384h-128zM384 448q0 -48 2 -94t14 -82t38 -58t74 -22t74 22t38 58t14 82t2 94v384q0 48 -2 94t-14 82t-38 58t-74 22t-74 -22t-38 -58t-14 -82t-2 -94v-384z" />
<glyph unicode="&#xf3;" d="M128 448v384q0 32 2 79t12.5 98.5t33.5 103.5t65.5 93t108.5 66.5t162 25.5t162 -25.5t108.5 -66.5t65.5 -93t33.5 -103.5t12.5 -98.5t2 -79v-384q0 -32 -2 -79t-12.5 -98.5t-33.5 -103.5t-65.5 -93t-108.5 -66.5t-162 -25.5t-162 25.5t-108.5 66.5t-65.5 93t-33.5 103.5 t-12.5 98.5t-2 79zM320 1408l128 384h256l-256 -384h-128zM384 448q0 -48 2 -94t14 -82t38 -58t74 -22t74 22t38 58t14 82t2 94v384q0 48 -2 94t-14 82t-38 58t-74 22t-74 -22t-38 -58t-14 -82t-2 -94v-384z" />
<glyph unicode="&#xf4;" d="M128 448v384q0 32 2 79t12.5 98.5t33.5 103.5t65.5 93t108.5 66.5t162 25.5t162 -25.5t108.5 -66.5t65.5 -93t33.5 -103.5t12.5 -98.5t2 -79v-384q0 -32 -2 -79t-12.5 -98.5t-33.5 -103.5t-65.5 -93t-108.5 -66.5t-162 -25.5t-162 25.5t-108.5 66.5t-65.5 93t-33.5 103.5 t-12.5 98.5t-2 79zM194 1408l192 384h256l192 -384h-192l-128 256l-128 -256h-192zM384 448q0 -48 2 -94t14 -82t38 -58t74 -22t74 22t38 58t14 82t2 94v384q0 48 -2 94t-14 82t-38 58t-74 22t-74 -22t-38 -58t-14 -82t-2 -94v-384z" />
<glyph unicode="&#xf5;" d="M128 448v384q0 32 2 79t12.5 98.5t33.5 103.5t65.5 93t108.5 66.5t162 25.5t162 -25.5t108.5 -66.5t65.5 -93t33.5 -103.5t12.5 -98.5t2 -79v-384q0 -32 -2 -79t-12.5 -98.5t-33.5 -103.5t-65.5 -93t-108.5 -66.5t-162 -25.5t-162 25.5t-108.5 66.5t-65.5 93t-33.5 103.5 t-12.5 98.5t-2 79zM160 1472q-1 6 0 28.5t7 52.5t19 64t37.5 62.5t62.5 47t93 18.5q39 0 78.5 -13.5t76.5 -29.5t69.5 -29.5t56.5 -13.5q23 0 37 15.5t14 53.5h153q1 -5 0 -27.5t-7 -53.5t-19 -65t-37.5 -63t-62.5 -48t-93 -19q-42 0 -83 13.5t-77.5 30t-68 30t-55.5 13.5 q-23 0 -35.5 -14.5t-12.5 -52.5h-153zM384 448q0 -48 2 -94t14 -82t38 -58t74 -22t74 22t38 58t14 82t2 94v384q0 48 -2 94t-14 82t-38 58t-74 22t-74 -22t-38 -58t-14 -82t-2 -94v-384z" />
<glyph unicode="&#xf6;" d="M128 448v384q0 32 2 79t12.5 98.5t33.5 103.5t65.5 93t108.5 66.5t162 25.5t162 -25.5t108.5 -66.5t65.5 -93t33.5 -103.5t12.5 -98.5t2 -79v-384q0 -32 -2 -79t-12.5 -98.5t-33.5 -103.5t-65.5 -93t-108.5 -66.5t-162 -25.5t-162 25.5t-108.5 66.5t-65.5 93t-33.5 103.5 t-12.5 98.5t-2 79zM192 1536v256h256v-256h-256zM384 448q0 -48 2 -94t14 -82t38 -58t74 -22t74 22t38 58t14 82t2 94v384q0 48 -2 94t-14 82t-38 58t-74 22t-74 -22t-38 -58t-14 -82t-2 -94v-384zM576 1536v256h256v-256h-256z" />
<glyph unicode="&#xf7;" horiz-adv-x="640" d="M0 576v192h640v-192h-640zM192 233v256h256v-256h-256zM192 879v256h256v-256h-256z" />
<glyph unicode="&#xf8;" d="M128 448v384q0 32 2 79t12.5 98.5t33.5 103.5t65.5 93t108.5 66.5t162 25.5t162 -26q17 -6 33 -14l72 204h97l-92 -257q41 -41 64 -92q23 -52 33.5 -103.5t12.5 -98.5t2 -79v-384q0 -32 -2 -79t-12.5 -98.5t-33.5 -103.5t-65.5 -93t-108.5 -66.5t-162 -25.5 q-93 0 -158 24l-72 -202h-86l84 239q-21 14 -38 31q-43 41 -66 93t-33.5 103.5t-12.5 98.5t-2 79zM384 448q0 -48 2 -94v-8l236 669q-12 31 -36 51q-26 22 -74 22t-74 -22t-38 -58t-14 -82t-2 -94v-384zM431 220q3 -3 7 -6q26 -22 74 -22t74 22t38 58t14 82t2 94v355z" />
<glyph unicode="&#xf9;" d="M128 189v1091h256v-1013q0 -42 25.5 -66t62.5 -24q24 0 46.5 8.5t43.5 21.5t40.5 29t37.5 31v1013h256v-1280h-256v138q-65 -59 -115.5 -90.5t-90 -46t-69.5 -17t-53 -2.5q-42 0 -76 17.5t-58 46.5t-37 66.5t-13 76.5zM320 1792h256l128 -384h-128z" />
<glyph unicode="&#xfa;" d="M128 189v1091h256v-1013q0 -42 25.5 -66t62.5 -24q24 0 46.5 8.5t43.5 21.5t40.5 29t37.5 31v1013h256v-1280h-256v138q-65 -59 -115.5 -90.5t-90 -46t-69.5 -17t-53 -2.5q-42 0 -76 17.5t-58 46.5t-37 66.5t-13 76.5zM320 1408l128 384h256l-256 -384h-128z" />
<glyph unicode="&#xfb;" d="M128 189v1091h256v-1013q0 -42 25.5 -66t62.5 -24q24 0 46.5 8.5t43.5 21.5t40.5 29t37.5 31v1013h256v-1280h-256v138q-65 -59 -115.5 -90.5t-90 -46t-69.5 -17t-53 -2.5q-42 0 -76 17.5t-58 46.5t-37 66.5t-13 76.5zM194 1408l192 384h256l192 -384h-192l-128 256 l-128 -256h-192z" />
<glyph unicode="&#xfc;" d="M128 189v1091h256v-1013q0 -42 25.5 -66t62.5 -24q24 0 46.5 8.5t43.5 21.5t40.5 29t37.5 31v1013h256v-1280h-256v138q-65 -59 -115.5 -90.5t-90 -46t-69.5 -17t-53 -2.5q-42 0 -76 17.5t-58 46.5t-37 66.5t-13 76.5zM192 1536v256h256v-256h-256zM576 1536v256h256 v-256h-256z" />
<glyph unicode="&#xfd;" horiz-adv-x="960" d="M64 1280h256l128 -704l33 -192l31 192l128 704h256l-320 -1344q-17 -74 -53 -123.5t-92 -79t-131.5 -41.5t-171.5 -12v192q59 0 100.5 14t67.5 38.5t37.5 58t11.5 73.5q0 17 -1.5 35t-6.5 37zM288 1408l128 384h256l-256 -384h-128z" />
<glyph unicode="&#xfe;" horiz-adv-x="838" d="M72 -340v1858h219v-494q44 47 79 73t62.5 38.5t49 15t38.5 2.5q79 0 128 -37t76 -116t36.5 -203.5t9.5 -298.5q0 -51 -3 -109t-11.5 -115t-25 -109t-44 -92t-66.5 -63.5t-94 -23.5q-32 0 -64.5 10.5t-63 27.5t-58 39.5t-49.5 45.5v-449h-219zM291 223q101 -59 155 -59 q34 0 54 26t30 82.5t12.5 145.5t2.5 215q0 74 -0.5 137.5t-9.5 110t-31 72.5t-64 26t-78 -18t-71 -39v-699z" />
<glyph unicode="&#xff;" horiz-adv-x="960" d="M64 1280h256l128 -704l33 -192l31 192l128 704h256l-320 -1344q-17 -74 -53 -123.5t-92 -79t-131.5 -41.5t-171.5 -12v192q59 0 100.5 14t67.5 38.5t37.5 58t11.5 73.5q0 17 -1.5 35t-6.5 37zM160 1536v256h256v-256h-256zM544 1536v256h256v-256h-256z" />
<glyph unicode="&#x11e;" horiz-adv-x="1216" d="M96 698v454q0 144 26 265t86 208t158 136t242 49q127 0 222.5 -39.5t160 -115t97 -186.5t32.5 -253h-256q0 96 -13 168t-43 120t-79 72t-121 24t-121 -24t-79 -72t-43 -120t-13 -168v-576q0 -144 22 -232t58 -136t82 -64t94 -16t94 16t82 64t58 136t22 232v64h-256v192 h512v-896h-192l-64 192q-21 -59 -56 -105q-15 -20 -34.5 -39t-44.5 -33.5t-55 -23.5t-66 -9q-80 0 -149 13.5t-126 45.5t-101 85t-74.5 133t-46 188t-15.5 251zM288 2316h192q0 -72 11 -111t29 -57t41 -21t47 -3t47 3t41 21t29 57t11 111h192q0 -96 -15 -162t-39.5 -108.5 t-57.5 -65.5t-68.5 -33.5t-71.5 -12.5t-68 -2t-68 2t-71.5 12.5t-68.5 33.5t-57.5 65.5t-39.5 108.5t-15 162z" />
<glyph unicode="&#x11f;" horiz-adv-x="1088" d="M64 -195q0 24 6.5 58.5t30.5 84.5t65.5 83.5t89.5 57.5q-60 17 -94 47t-34 58.5t13.5 64t33 70.5t42 66t39.5 53q-34 40 -58.5 86t-40 95t-22.5 100.5t-7 102.5q0 120 33 208t87 145t123 85t141 28q48 0 87 -8t72 -25.5t61.5 -46.5t55.5 -71q13 24 33.5 50.5t49.5 49 t67 37t86 14.5v-210q-38 0 -67 -10t-50 -22q-13 -7 -23.5 -15t-19.5 -17q8 -23 16 -56q6 -26 11 -61t5 -75q0 -96 -24 -180.5t-72 -147.5t-120 -99.5t-168 -36.5q-17 0 -39 2q-26 2 -42 5l-48 8q-6 -12 -11.5 -19.5t-11.5 -20.5t-9 -21t-3 -21q0 -30 29 -46.5t80.5 -24.5 t109 -10.5t120.5 -12t123.5 -26.5t108 -47t76.5 -78t29 -120q0 -75 -24.5 -124.5t-63.5 -85t-88 -57t-99 -33t-95.5 -15.5t-77.5 -4q-35 0 -87 1t-108.5 6t-113 17t-102 33t-73.5 54t-28 77zM199 1804h192q0 -72 11 -111t29 -57t41 -21t47 -3t47 3t41 21t29 57t11 111h192 q0 -96 -15 -162t-39.5 -108.5t-57.5 -65.5t-68.5 -33.5t-71.5 -12.5t-68 -2t-68 2t-71.5 12.5t-68.5 33.5t-57.5 65.5t-39.5 108.5t-15 162zM290 -135q0 -24 22.5 -37t74 -16.5t97 -4.5t92.5 -1q24 0 62 1.5t74 10t62 31t26 52.5q0 15 -4 33q-14 76 -201 98l-211 25 q-52 -41 -84 -134q-10 -30 -10 -58zM352 832q0 -48 7 -96.5t25 -87.5t49 -63.5t79 -24.5t79 24.5t49 63.5t25 87.5t7 96.5t-7 99t-25 93t-49 69t-79 27t-79 -27t-49 -69t-25 -93t-7 -99z" />
<glyph unicode="&#x130;" horiz-adv-x="512" d="M128 0v1792h256v-1792h-256zM128 1932v256h256v-256h-256z" />
<glyph unicode="&#x131;" horiz-adv-x="384" d="M78 0v1135h221v-1135h-221z" />
<glyph unicode="&#x152;" horiz-adv-x="1664" d="M128 576v640q0 80 10 155t33.5 141t62.5 121t95.5 94t133.5 61t177 22q72 0 121 -23t79 -50q35 -33 56 -73v128h704v-192h-448v-576h320v-192h-320v-640h448v-192h-704v128q-21 -41 -56 -73q-30 -28 -79 -50.5t-121 -22.5q-100 0 -177 22t-133.5 61t-95.5 94t-62.5 121 t-33.5 141t-10 155zM384 512q0 -72 13 -131t43 -101t79 -65t121 -23t121 23t79 65t43 101t13 131v782q-1 69 -15 125.5t-44 96.5t-78.5 62t-118.5 22q-72 0 -121 -23t-79 -65t-43 -101t-13 -131v-768z" />
<glyph unicode="&#x153;" horiz-adv-x="1536" d="M128 448v384q0 32 2 79t12.5 98.5t33.5 103.5t65.5 93t108.5 66.5t162 25.5q72 0 121 -23t79 -50q35 -33 56 -73q21 40 56 73q30 27 79 50t122 23q96 0 167.5 -30.5t119.5 -103t72 -193t24 -301.5v-30h-512v-64q0 -72 2 -141t14 -123t38 -87t74 -33q49 0 75 22t38 58 t13.5 82t1.5 94h256q0 -240 -95.5 -353t-288.5 -113q-72 0 -121 22.5t-79 50.5q-35 32 -56 73q-21 -41 -56 -73q-30 -28 -79 -50.5t-121 -22.5q-96 0 -162 25.5t-108.5 66.5t-65.5 93t-33.5 103.5t-12.5 98.5t-2 79zM384 448q0 -48 2 -94t14 -82t38 -58t74 -22t74 22t38 58 t14 82t2 94v384q0 48 -2 94t-14 82t-38 58t-74 22t-74 -22t-38 -58t-14 -82t-2 -94v-384zM896 768h256q0 48 -1.5 104t-13 104t-37.5 80t-75 32q-48 0 -74 -32t-38.5 -80t-14.5 -104t-2 -104z" />
<glyph unicode="&#x15e;" horiz-adv-x="1153" d="M96 1378q0 86 29 164.5t85.5 138t140.5 94.5t194 35q96 0 169 -20t127 -53t91 -75t61 -85q56 -103 64 -233l-256 -64q-4 90 -32 160q-12 30 -30.5 58.5t-45.5 51t-63.5 36.5t-84.5 14q-50 0 -86.5 -15.5t-60 -41.5t-34.5 -61t-11 -74q0 -66 31 -135t97 -121l320 -256 q61 -49 108.5 -107.5t80.5 -122.5t50 -131.5t17 -133.5q0 -83 -27 -158.5t-82.5 -133.5t-139.5 -92.5t-199 -34.5q-96 0 -169 22.5t-127 60t-91 85t-61 97.5q-56 116 -64 265l256 64q4 -108 32 -192q12 -36 30.5 -70.5t45.5 -61.5t63.5 -43.5t84.5 -16.5q192 0 192 192 q0 48 -12 89.5t-36 80t-60 75t-84 75.5l-320 256q-49 39 -85.5 88.5t-60.5 104.5t-35.5 112t-11.5 113zM481 -385q72 0 121 1t79 7t43 19t13 37q0 12 -8.5 24t-22 23t-30.5 21.5t-35 19.5q-42 21 -96 40v192h128v-128q72 -20 128 -48q24 -12 47 -27t41 -33t29 -39t11 -45 q0 -72 -34 -111t-94 -57t-142 -21t-178 -3v128z" />
<glyph unicode="&#x15f;" horiz-adv-x="960" d="M96 320l192 64q20 -54 48 -96q12 -18 27 -35.5t33 -31t39 -21.5t45 -8t47 6.5t41 21.5t29 39.5t11 60.5t-10 63.5t-22 46.5q-14 22 -32 38l-256 192q-62 43 -100 83.5t-58.5 78t-27 72t-6.5 66.5q0 72 24 134t72 107t120 71t168 26q60 0 108.5 -14.5t86.5 -38.5t67 -54.5 t50 -61.5q49 -75 72 -169l-192 -64q-20 54 -48 96q-12 18 -27 35t-33 30.5t-39 22t-45 8.5t-47 -6.5t-41 -21.5t-29 -39.5t-11 -60.5q0 -24 10 -44t22 -34q14 -17 32 -30l256 -192q91 -73 141.5 -155.5t50.5 -184.5q0 -72 -24 -134t-72 -107t-120 -71t-168 -26 q-60 0 -108.5 14.5t-87 38t-67 54t-49.5 62.5q-49 74 -72 169zM352 -385q72 0 121 1t79 7t43 19t13 37q0 12 -8.5 24t-22 23t-30.5 21.5t-35 19.5q-42 21 -96 40v192h128v-128q72 -20 128 -48q24 -12 47 -27t41 -33t29 -39t11 -45q0 -72 -34 -111t-94 -57t-142 -21t-178 -3 v128z" />
<glyph unicode="&#x178;" horiz-adv-x="1152" d="M64 1792h256l256 -896l256 896h256l-384 -1216v-576h-256v576zM256 2048v256h256v-256h-256zM640 2048v256h256v-256h-256z" />
<glyph unicode="&#x192;" horiz-adv-x="704" d="M0 -54q18 -3 35 -5q14 -2 28.5 -3.5t22.5 -1.5q36 0 57.5 13t32 35t13.5 51t3 61v992h-128v192h128v64q0 48 1.5 95t9.5 90t25.5 79t49.5 63t81.5 42t122.5 15q36 0 70 -2.5t88 -9.5v-190q-18 2 -35 5q-14 2 -28.5 3.5t-22.5 1.5q-36 0 -57.5 -13t-32 -35t-13.5 -51 t-3 -61v-96h128v-192h-128v-960q0 -48 -1.5 -95t-9.5 -90t-25.5 -79t-49.5 -63t-82 -42t-122 -15q-36 0 -70 2.5t-88 9.5v190z" />
<glyph unicode="&#x2c6;" horiz-adv-x="768" d="M64 1408l192 384h256l192 -384h-192l-128 256l-128 -256h-192z" />
<glyph unicode="&#x2c7;" horiz-adv-x="768" d="M64 1792h192l128 -256l128 256h192l-192 -384h-256z" />
<glyph unicode="&#x2d8;" horiz-adv-x="768" d="M64 1792h192q0 -72 11 -111t29 -57t41 -21t47 -3t47 3t41 21t29 57t11 111h192q0 -96 -15 -162t-39.5 -108.5t-57.5 -65.5t-68.5 -33.5t-71.5 -12.5t-68 -2t-68 2t-71.5 12.5t-68.5 33.5t-57.5 65.5t-39.5 108.5t-15 162z" />
<glyph unicode="&#x2d9;" horiz-adv-x="384" d="M64 1536v256h256v-256h-256z" />
<glyph unicode="&#x2da;" horiz-adv-x="640" d="M64 1664q0 48 15.5 94t47 82t80 58t113.5 22t113.5 -22t80 -58t47 -82t15.5 -94t-15.5 -94t-47 -82t-80 -58t-113.5 -22t-113.5 22t-80 58t-47 82t-15.5 94zM192 1664q0 -24 7 -47t22 -41t39.5 -29t59.5 -11q34 0 58.5 11t40 29t22.5 41t7 47t-7 47t-22.5 41t-40 29 t-58.5 11t-58.5 -11t-40 -29t-22.5 -41t-7 -47z" />
<glyph unicode="&#x2db;" horiz-adv-x="537" d="M-320 -313q0 106 78 191q110 123 178 139h128q0 -1 -122 -160q-70 -92 -70 -166q0 -28 13 -41t48 -20t195 -7v-128q-240 0 -320 24q-128 38 -128 168z" />
<glyph unicode="&#x2dc;" horiz-adv-x="960" d="M128 1472q-1 6 0 28.5t7 52.5t19 64t37.5 62.5t62.5 47t93 18.5q39 0 78.5 -13.5t76.5 -29.5t69.5 -29.5t56.5 -13.5q23 0 37 15.5t14 53.5h153q1 -5 0 -27.5t-7 -53.5t-19 -65t-37.5 -63t-62.5 -48t-93 -19q-42 0 -83 13.5t-77.5 30t-68 30t-55.5 13.5 q-23 0 -35.5 -14.5t-12.5 -52.5h-153z" />
<glyph unicode="&#x2dd;" horiz-adv-x="640" d="M128 1408l128 384h256l-256 -384h-128zM512 1408l128 384h256l-256 -384h-128z" />
<glyph unicode="&#x2000;" horiz-adv-x="1216" />
<glyph unicode="&#x2001;" horiz-adv-x="2432" />
<glyph unicode="&#x2002;" horiz-adv-x="1216" />
<glyph unicode="&#x2003;" horiz-adv-x="2432" />
<glyph unicode="&#x2004;" horiz-adv-x="810" />
<glyph unicode="&#x2005;" horiz-adv-x="608" />
<glyph unicode="&#x2006;" horiz-adv-x="405" />
<glyph unicode="&#x2007;" horiz-adv-x="405" />
<glyph unicode="&#x2008;" horiz-adv-x="304" />
<glyph unicode="&#x2009;" horiz-adv-x="486" />
<glyph unicode="&#x200a;" horiz-adv-x="135" />
<glyph unicode="&#x2010;" horiz-adv-x="384" d="M0 448v192h384v-192h-384z" />
<glyph unicode="&#x2011;" horiz-adv-x="384" d="M0 448v192h384v-192h-384z" />
<glyph unicode="&#x2012;" horiz-adv-x="384" d="M0 448v192h384v-192h-384z" />
<glyph unicode="&#x2013;" d="M0 448v192h1024v-192h-1024z" />
<glyph unicode="&#x2014;" horiz-adv-x="2048" d="M0 448v192h2048v-192h-2048z" />
<glyph unicode="&#x2018;" horiz-adv-x="512" d="M128 1280q0 144 3 242t21 158t57 86t111 26l64 -128q-48 0 -74 -13.5t-38 -33.5t-14 -42t-2 -39h128v-256h-256z" />
<glyph unicode="&#x2019;" horiz-adv-x="512" d="M128 1408q48 0 74 13.5t38 33.5t14 42t2 39h-128v256h256q0 -144 -3 -242t-21 -158t-57 -86t-111 -26z" />
<glyph unicode="&#x201a;" horiz-adv-x="384" d="M62 63h256l-64 -384h-128z" />
<glyph unicode="&#x201c;" horiz-adv-x="896" d="M128 1280q0 144 3 242t21 158t57 86t111 26l64 -128q-48 0 -74 -13.5t-38 -33.5t-14 -42t-2 -39h128v-256h-256zM512 1280q0 144 3 242t21 158t57 86t111 26l64 -128q-48 0 -74 -13.5t-38 -33.5t-14 -42t-2 -39h128v-256h-256z" />
<glyph unicode="&#x201d;" horiz-adv-x="896" d="M128 1408q48 0 74 13.5t38 33.5t14 42t2 39h-128v256h256q0 -144 -3 -242t-21 -158t-57 -86t-111 -26zM512 1408q48 0 74 13.5t38 33.5t14 42t2 39h-128v256h256q0 -144 -3 -242t-21 -158t-57 -86t-111 -26z" />
<glyph unicode="&#x201e;" horiz-adv-x="704" d="M62 64h256l-64 -384h-128zM385 64h256l-64 -384h-128z" />
<glyph unicode="&#x2021;" horiz-adv-x="768" d="M64 448v256h192v320h-192v256h192v256h256v-256h192v-256h-192v-320h192v-256h-192v-448h-256v448h-192z" />
<glyph unicode="&#x202f;" horiz-adv-x="486" />
<glyph unicode="&#x2030;" horiz-adv-x="2834" d="M78 1032q0 111 20 190t52 133t72.5 86t81 48.5t77.5 21.5t63 5t63 -5t78 -21.5t81.5 -48.5t72.5 -86t52 -133t20 -190q0 -133 -31 -226t-82.5 -152t-117.5 -86t-136 -27t-136 27t-117 86t-82 152t-31 226zM311 1032q0 -27 2 -59t7.5 -65t15 -64t24.5 -55.5t35.5 -39 t48.5 -14.5q42 0 68.5 31t41 77t19.5 97t5 92q0 40 -4 90t-18 94.5t-40.5 74.5t-71.5 30q-44 0 -70.5 -30t-40.5 -74.5t-18 -94.5t-4 -90zM751 0l283 1518h219l-282 -1518h-220zM1188 492q0 111 20 190t52 132.5t72.5 85.5t81 48.5t77.5 21.5t63 5t63 -5t78 -21.5 t81.5 -48.5t72.5 -85.5t52 -132.5t20 -190q0 -133 -31 -226.5t-82.5 -152.5t-117.5 -86t-136 -27t-136 27t-117 86t-82 152.5t-31 226.5zM1421 492q0 -40 5 -91.5t19.5 -97t40.5 -77t68 -31.5t68.5 31t41 76.5t19.5 97t5 92.5q0 40 -4 90t-18 94t-40.5 74t-71.5 30 q-30 0 -51 -14t-36 -37t-24 -53t-14 -62t-6.5 -63.5t-1.5 -58.5zM2023 492q0 111 20 190t52.5 132.5t73 85.5t81 48.5t77.5 21.5t63 5q25 0 62.5 -5t78 -21.5t81 -48.5t73 -85.5t52.5 -132.5t20 -190q0 -133 -31 -226.5t-82.5 -152.5t-117.5 -86t-136 -27t-136 27t-117.5 86 t-82.5 152.5t-31 226.5zM2257 492q0 -40 5 -91.5t19 -97t40.5 -77t68.5 -31.5t68.5 31t40.5 76.5t19 97t5 92.5q0 40 -4 90t-18 94t-40 74t-71 30t-71 -30t-40 -74t-18 -94t-4 -90z" />
<glyph unicode="&#x2044;" horiz-adv-x="537" d="M18 383l283 1518h219l-282 -1518h-220z" />
<glyph unicode="&#x205f;" horiz-adv-x="608" />
<glyph unicode="&#x20ac;" horiz-adv-x="971" d="M0 508v166h68v153h-68v166h70q4 124 26 224t70 171t126 109.5t195 38.5q123 0 203 -41.5t127 -112t66 -164.5t20 -200h-250q0 97 -17.5 154.5t-42.5 88t-52.5 39.5t-48.5 9q-55 0 -88 -19t-51 -58t-24 -98.5t-7 -140.5h196v-166h-196v-153h196v-166h-194 q4 -89 15.5 -147.5t32.5 -93t52 -48.5t74 -14q10 0 26.5 1.5t34.5 10.5t36.5 29t33 57.5t24 95t9.5 142.5h247q0 -69 -6.5 -137.5t-23 -132t-46 -118t-75.5 -94.5t-111 -63t-153 -23q-89 0 -155 21.5t-112.5 58.5t-76.5 88.5t-47.5 110.5t-25 124.5t-9.5 131.5h-68z" />
<glyph unicode="&#x2122;" horiz-adv-x="2204" d="M152 1364v154h497v-154h-164v-678h-170v678h-163zM741 686v832h242l104 -453l107 453h242v-832h-160v555l-137 -555h-103l-137 555v-555h-158z" />
<glyph unicode="&#x2206;" d="M64 0l320 1280h258l320 -1280h-898zM361 192h303l-152 704z" />
<glyph unicode="&#x220f;" horiz-adv-x="1216" d="M128 0v1792h960v-1792h-256v1600h-448v-1600h-256z" />
<glyph unicode="&#x222b;" horiz-adv-x="704" d="M0 -54q18 -3 35 -5q14 -2 28.5 -3.5t22.5 -1.5q36 0 57.5 13t32 35t13.5 51t3 61v1248q0 48 1.5 95t9.5 90t25.5 79t49.5 63t81.5 42t122.5 15q36 0 70 -2.5t88 -9.5v-190q-18 2 -35 5q-14 2 -28.5 3.5t-22.5 1.5q-36 0 -57.5 -13t-32 -35t-13.5 -51t-3 -61v-1248 q0 -48 -1.5 -95t-9.5 -90t-25.5 -79t-49.5 -63t-82 -42t-122 -15q-36 0 -70 2.5t-88 9.5v190z" />
<glyph unicode="&#x25ca;" horiz-adv-x="896" d="M66 767l254 769h258l252 -768l-252 -768h-258zM322 768l126 -512l126 511l-126 513z" />
<glyph unicode="&#xe000;" horiz-adv-x="1280" d="M0 0v1280h1280v-1280h-1280z" />
<glyph unicode="&#xfb01;" horiz-adv-x="1216" d="M64 1088v192h128v49q0 43 0.5 89.5t8 90.5t24 84t49 70t83 47.5t125.5 17.5q36 0 70 -2.5t88 -9.5v-190q-18 2 -35 5q-14 2 -28.5 3.5t-22.5 1.5q-36 0 -57.5 -13t-32 -35t-13.5 -51t-3 -61v-96h192v-192h-192v-1088h-256v1088h-128zM832 0v1280h256v-1280h-256z M832 1472v256h256v-256h-256z" />
<glyph unicode="&#xfb02;" horiz-adv-x="1216" d="M64 1088v192h128v49q0 43 0.5 89.5t8 90.5t24 84t49 70t83 47.5t125.5 17.5q36 0 70 -2.5t88 -9.5v-190q-18 2 -35 5q-14 2 -28.5 3.5t-22.5 1.5q-36 0 -57.5 -13t-32 -35t-13.5 -51t-3 -61v-96h192v-192h-192v-1088h-256v1088h-128zM832 0v1792h256v-1792h-256z" />
<hkern g1="E,F" 	g2="a,c,e,g,o,s" 	k="64" />
<hkern g1="A" 	g2="a,c,e,g,o,s" 	k="32" />
<hkern g1="A" 	g2="T,V,W,Y" 	k="128" />
<hkern g1="K" 	g2="a,c,e,g,o,s" 	k="64" />
<hkern g1="P" 	g2="a,c,e,g,o,s" 	k="64" />
<hkern g1="L" 	g2="a,c,e,g,o,s" 	k="32" />
<hkern g1="v,y" 	g2="a,c,e,g,o,s" 	k="64" />
<hkern g1="a,b,c,e,o,p" 	g2="v,y" 	k="64" />
</font>
</defs></svg> 